Verilog/CLK_DIV_EVEN/simulation/qsim/CLK_DIV_EVEN.msim.vcd
$comment
	File created using the following command:
		vcd file CLK_DIV_EVEN.msim.vcd -direction
$end
$date
	Sun May 13 08:15:28 2018
$end
$version
	ModelSim Version 10.1d
$end
$timescale
	1ps
$end
$scope module CLK_DIV_EVEN_vlg_vec_tst $end
$var reg 1 ! CLK $end
$var reg 1 " RST_N $end
$var wire 1 # CLK_OUT $end
$var wire 1 $ sampler $end
$scope module i1 $end
$var wire 1 % gnd $end
$var wire 1 & vcc $end
$var wire 1 ' unknown $end
$var tri1 1 ( devclrn $end
$var tri1 1 ) devpor $end
$var tri1 1 * devoe $end
$var wire 1 + Add0~2_combout $end
$var wire 1 , Add0~6_combout $end
$var wire 1 - Add0~14_combout $end
$var wire 1 . Add0~21 $end
$var wire 1 / Add0~22_combout $end
$var wire 1 0 Add0~23 $end
$var wire 1 1 Add0~24_combout $end
$var wire 1 2 Add0~25 $end
$var wire 1 3 Add0~26_combout $end
$var wire 1 4 Add0~27 $end
$var wire 1 5 Add0~28_combout $end
$var wire 1 6 Add0~29 $end
$var wire 1 7 Add0~30_combout $end
$var wire 1 8 Equal0~0_combout $end
$var wire 1 9 count~0_combout $end
$var wire 1 : CLK_OUT~output_o $end
$var wire 1 ; CLK~input_o $end
$var wire 1 < Add0~1 $end
$var wire 1 = Add0~3 $end
$var wire 1 > Add0~5 $end
$var wire 1 ? Add0~7 $end
$var wire 1 @ Add0~9 $end
$var wire 1 A Add0~11 $end
$var wire 1 B Add0~13 $end
$var wire 1 C Add0~15 $end
$var wire 1 D Add0~17 $end
$var wire 1 E Add0~19 $end
$var wire 1 F Add0~20_combout $end
$var wire 1 G RST_N~input_o $end
$var wire 1 H Add0~18_combout $end
$var wire 1 I Add0~16_combout $end
$var wire 1 J Equal0~1_combout $end
$var wire 1 K Add0~12_combout $end
$var wire 1 L Add0~10_combout $end
$var wire 1 M Add0~8_combout $end
$var wire 1 N Equal0~2_combout $end
$var wire 1 O Add0~0_combout $end
$var wire 1 P Add0~4_combout $end
$var wire 1 Q count~1_combout $end
$var wire 1 R Equal0~3_combout $end
$var wire 1 S Equal0~4_combout $end
$var wire 1 T CLK_OUT~0_combout $end
$var wire 1 U CLK_OUT~reg0_q $end
$var wire 1 V count [15] $end
$var wire 1 W count [14] $end
$var wire 1 X count [13] $end
$var wire 1 Y count [12] $end
$var wire 1 Z count [11] $end
$var wire 1 [ count [10] $end
$var wire 1 \ count [9] $end
$var wire 1 ] count [8] $end
$var wire 1 ^ count [7] $end
$var wire 1 _ count [6] $end
$var wire 1 ` count [5] $end
$var wire 1 a count [4] $end
$var wire 1 b count [3] $end
$var wire 1 c count [2] $end
$var wire 1 d count [1] $end
$var wire 1 e count [0] $end
$upscope $end
$upscope $end
$enddefinitions $end
#0
$dumpvars
0!
1"
0#
x$
0%
1&
x'
1(
1)
1*
0+
0,
0-
0.
0/
10
01
02
03
14
05
06
07
18
09
0:
0;
0<
1=
0>
1?
0@
1A
0B
1C
0D
1E
0F
1G
0H
0I
1J
0K
0L
0M
1N
1O
0P
0Q
0R
0S
0T
0U
0e
0d
0c
0b
0a
0`
0_
0^
0]
0\
0[
0Z
0Y
0X
0W
0V
$end
#5000
1!
1;
0$
1e
1<
0O
1+
1Q
#10000
0!
0;
1$
#15000
1!
1;
0$
1d
0e
0=
0+
0<
1O
1P
0Q
1=
1+
0P
1Q
#20000
0!
0;
1$
#25000
1!
1;
0$
1e
1<
0O
0=
0+
1P
0Q
#30000
0"
0!
0G
0;
1$
0d
0e
1=
1+
0<
1O
0P
1Q
0+
0Q
#35000
1!
1;
0$
#40000
0!
0;
1$
#45000
1!
1;
0$
#50000
0!
0;
1$
#55000
1!
1;
0$
#60000
1"
0!
1G
0;
1$
#65000
1!
1;
0$
1e
1<
0O
1+
1Q
#70000
0!
0;
1$
#75000
1!
1;
0$
1d
0e
0=
0+
0<
1O
1P
0Q
1=
1+
0P
1Q
#80000
0!
0;
1$
#85000
1!
1;
0$
1e
1<
0O
0=
0+
1P
0Q
#90000
0!
0;
1$
#95000
1!
1;
0$
0d
1c
0e
1=
1+
1>
0P
0<
1O
0>
1P
1Q
1,
0+
0,
19
0Q
09
#100000
0!
0;
1$
#105000
1!
1;
0$
1e
1<
0O
1+
1Q
#110000
0!
0;
1$
#115000
1!
1;
0$
1d
0e
0=
0+
0<
1O
1>
0P
0Q
1=
1+
1,
0>
1P
1Q
19
0,
09
#120000
0!
0;
1$
#125000
1!
1;
0$
1e
1<
0O
0=
0+
1>
0P
0Q
1,
19
#130000
0!
0;
1$
#135000
1!
1;
0$
0d
0c
0e
1b
1=
1+
0>
1P
0<
1O
0?
0,
0P
1Q
1?
1,
0+
1M
09
0M
19
0Q
#140000
0!
0;
1$
#145000
1!
1;
0$
1e
1R
1<
0O
1S
1+
1T
09
#150000
0!
0;
1$
#155000
1!
1;
0$
0e
0b
1U
0R
0<
1O
0,
0T
1:
1#
0S
0+
1T
#160000
0!
0;
1$
#165000
1!
1;
0$
1e
1<
0O
1+
1Q
#170000
0!
0;
1$
#175000
1!
1;
0$
1d
0e
0=
0+
0<
1O
1P
0Q
1=
1+
0P
1Q
#180000
0!
0;
1$
#185000
1!
1;
0$
1e
1<
0O
0=
0+
1P
0Q
#190000
0!
0;
1$
#195000
1!
1;
0$
0d
1c
0e
1=
1+
1>
0P
0<
1O
0>
1P
1Q
1,
0+
0,
19
0Q
09
#200000
0!
0;
1$
#205000
1!
1;
0$
1e
1<
0O
1+
1Q
#210000
0!
0;
1$
#215000
1!
1;
0$
1d
0e
0=
0+
0<
1O
1>
0P
0Q
1=
1+
1,
0>
1P
1Q
19
0,
09
#220000
0!
0;
1$
#225000
1!
1;
0$
1e
1<
0O
0=
0+
1>
0P
0Q
1,
19
#230000
0!
0;
1$
#235000
1!
1;
0$
0d
0c
0e
1b
1=
1+
0>
1P
0<
1O
0?
0,
0P
1Q
1?
1,
0+
1M
09
0M
19
0Q
#240000
0!
0;
1$
#245000
1!
1;
0$
1e
1R
1<
0O
1S
1+
0T
09
#250000
0!
0;
1$
#255000
1!
1;
0$
0e
0b
0U
0R
0<
1O
0,
1T
0:
0#
0S
0+
0T
#260000
0!
0;
1$
#265000
1!
1;
0$
1e
1<
0O
1+
1Q
#270000
0!
0;
1$
#275000
1!
1;
0$
1d
0e
0=
0+
0<
1O
1P
0Q
1=
1+
0P
1Q
#280000
0!
0;
1$
#285000
1!
1;
0$
1e
1<
0O
0=
0+
1P
0Q
#290000
0!
0;
1$
#295000
1!
1;
0$
0d
1c
0e
1=
1+
1>
0P
0<
1O
0>
1P
1Q
1,
0+
0,
19
0Q
09
#300000
0!
0;
1$
#305000
1!
1;
0$
1e
1<
0O
1+
1Q
#310000
0!
0;
1$
#315000
1!
1;
0$
1d
0e
0=
0+
0<
1O
1>
0P
0Q
1=
1+
1,
0>
1P
1Q
19
0,
09
#320000
0!
0;
1$
#325000
1!
1;
0$
1e
1<
0O
0=
0+
1>
0P
0Q
1,
19
#330000
0!
0;
1$
#335000
1!
1;
0$
0d
0c
0e
1b
1=
1+
0>
1P
0<
1O
0?
0,
0P
1Q
1?
1,
0+
1M
09
0M
19
0Q
#340000
0!
0;
1$
#345000
1!
1;
0$
1e
1R
1<
0O
1S
1+
1T
09
#350000
0!
0;
1$
#355000
1!
1;
0$
0e
0b
1U
0R
0<
1O
0,
0T
1:
1#
0S
0+
1T
#360000
0!
0;
1$
#365000
1!
1;
0$
1e
1<
0O
1+
1Q
#370000
0!
0;
1$
#375000
1!
1;
0$
1d
0e
0=
0+
0<
1O
1P
0Q
1=
1+
0P
1Q
#380000
0!
0;
1$
#385000
1!
1;
0$
1e
1<
0O
0=
0+
1P
0Q
#390000
0!
0;
1$
#395000
1!
1;
0$
0d
1c
0e
1=
1+
1>
0P
0<
1O
0>
1P
1Q
1,
0+
0,
19
0Q
09
#400000
0!
0;
1$
#405000
1!
1;
0$
1e
1<
0O
1+
1Q
#410000
0!
0;
1$
#415000
1!
1;
0$
1d
0e
0=
0+
0<
1O
1>
0P
0Q
1=
1+
1,
0>
1P
1Q
19
0,
09
#420000
0!
0;
1$
#425000
1!
1;
0$
1e
1<
0O
0=
0+
1>
0P
0Q
1,
19
#430000
0!
0;
1$
#435000
1!
1;
0$
0d
0c
0e
1b
1=
1+
0>
1P
0<
1O
0?
0,
0P
1Q
1?
1,
0+
1M
09
0M
19
0Q
#440000
0!
0;
1$
#445000
1!
1;
0$
1e
1R
1<
0O
1S
1+
0T
09
#450000
0!
0;
1$
#455000
1!
1;
0$
0e
0b
0U
0R
0<
1O
0,
1T
0:
0#
0S
0+
0T
#460000
0!
0;
1$
#465000
1!
1;
0$
1e
1<
0O
1+
1Q
#470000
0!
0;
1$
#475000
1!
1;
0$
1d
0e
0=
0+
0<
1O
1P
0Q
1=
1+
0P
1Q
#480000
0!
0;
1$
#485000
1!
1;
0$
1e
1<
0O
0=
0+
1P
0Q
#490000
0!
0;
1$
#495000
1!
1;
0$
0d
1c
0e
1=
1+
1>
0P
0<
1O
0>
1P
1Q
1,
0+
0,
19
0Q
09
#500000
0!
0;
1$
#505000
1!
1;
0$
1e
1<
0O
1+
1Q
#510000
0!
0;
1$
#515000
1!
1;
0$
1d
0e
0=
0+
0<
1O
1>
0P
0Q
1=
1+
1,
0>
1P
1Q
19
0,
09
#520000
0!
0;
1$
#525000
1!
1;
0$
1e
1<
0O
0=
0+
1>
0P
0Q
1,
19
#530000
0!
0;
1$
#535000
1!
1;
0$
0d
0c
0e
1b
1=
1+
0>
1P
0<
1O
0?
0,
0P
1Q
1?
1,
0+
1M
09
0M
19
0Q
#540000
0!
0;
1$
#545000
1!
1;
0$
1e
1R
1<
0O
1S
1+
1T
09
#550000
0!
0;
1$
#555000
1!
1;
0$
0e
0b
1U
0R
0<
1O
0,
0T
1:
1#
0S
0+
1T
#560000
0!
0;
1$
#565000
1!
1;
0$
1e
1<
0O
1+
1Q
#570000
0!
0;
1$
#575000
1!
1;
0$
1d
0e
0=
0+
0<
1O
1P
0Q
1=
1+
0P
1Q
#580000
0!
0;
1$
#585000
1!
1;
0$
1e
1<
0O
0=
0+
1P
0Q
#590000
0!
0;
1$
#595000
1!
1;
0$
0d
1c
0e
1=
1+
1>
0P
0<
1O
0>
1P
1Q
1,
0+
0,
19
0Q
09
#600000
0!
0;
1$
#605000
1!
1;
0$
1e
1<
0O
1+
1Q
#610000
0!
0;
1$
#615000
1!
1;
0$
1d
0e
0=
0+
0<
1O
1>
0P
0Q
1=
1+
1,
0>
1P
1Q
19
0,
09
#620000
0!
0;
1$
#625000
1!
1;
0$
1e
1<
0O
0=
0+
1>
0P
0Q
1,
19
#630000
0!
0;
1$
#635000
1!
1;
0$
0d
0c
0e
1b
1=
1+
0>
1P
0<
1O
0?
0,
0P
1Q
1?
1,
0+
1M
09
0M
19
0Q
#640000
0!
0;
1$
#645000
1!
1;
0$
1e
1R
1<
0O
1S
1+
0T
09
#650000
0!
0;
1$
#655000
1!
1;
0$
0e
0b
0U
0R
0<
1O
0,
1T
0:
0#
0S
0+
0T
#660000
0!
0;
1$
#665000
1!
1;
0$
1e
1<
0O
1+
1Q
#670000
0!
0;
1$
#675000
1!
1;
0$
1d
0e
0=
0+
0<
1O
1P
0Q
1=
1+
0P
1Q
#680000
0!
0;
1$
#685000
1!
1;
0$
1e
1<
0O
0=
0+
1P
0Q
#690000
0!
0;
1$
#695000
1!
1;
0$
0d
1c
0e
1=
1+
1>
0P
0<
1O
0>
1P
1Q
1,
0+
0,
19
0Q
09
#700000
0!
0;
1$
#705000
1!
1;
0$
1e
1<
0O
1+
1Q
#710000
0!
0;
1$
#715000
1!
1;
0$
1d
0e
0=
0+
0<
1O
1>
0P
0Q
1=
1+
1,
0>
1P
1Q
19
0,
09
#720000
0!
0;
1$
#725000
1!
1;
0$
1e
1<
0O
0=
0+
1>
0P
0Q
1,
19
#730000
0!
0;
1$
#735000
1!
1;
0$
0d
0c
0e
1b
1=
1+
0>
1P
0<
1O
0?
0,
0P
1Q
1?
1,
0+
1M
09
0M
19
0Q
#740000
0!
0;
1$
#745000
1!
1;
0$
1e
1R
1<
0O
1S
1+
1T
09
#750000
0!
0;
1$
#755000
1!
1;
0$
0e
0b
1U
0R
0<
1O
0,
0T
1:
1#
0S
0+
1T
#760000
0!
0;
1$
#765000
1!
1;
0$
1e
1<
0O
1+
1Q
#770000
0!
0;
1$
#775000
1!
1;
0$
1d
0e
0=
0+
0<
1O
1P
0Q
1=
1+
0P
1Q
#780000
0!
0;
1$
#785000
1!
1;
0$
1e
1<
0O
0=
0+
1P
0Q
#790000
0!
0;
1$
#795000
1!
1;
0$
0d
1c
0e
1=
1+
1>
0P
0<
1O
0>
1P
1Q
1,
0+
0,
19
0Q
09
#800000
0!
0;
1$
#805000
1!
1;
0$
1e
1<
0O
1+
1Q
#810000
0!
0;
1$
#815000
1!
1;
0$
1d
0e
0=
0+
0<
1O
1>
0P
0Q
1=
1+
1,
0>
1P
1Q
19
0,
09
#820000
0!
0;
1$
#825000
1!
1;
0$
1e
1<
0O
0=
0+
1>
0P
0Q
1,
19
#830000
0!
0;
1$
#835000
1!
1;
0$
0d
0c
0e
1b
1=
1+
0>
1P
0<
1O
0?
0,
0P
1Q
1?
1,
0+
1M
09
0M
19
0Q
#840000
0!
0;
1$
#845000
1!
1;
0$
1e
1R
1<
0O
1S
1+
0T
09
#850000
0!
0;
1$
#855000
1!
1;
0$
0e
0b
0U
0R
0<
1O
0,
1T
0:
0#
0S
0+
0T
#860000
0!
0;
1$
#865000
1!
1;
0$
1e
1<
0O
1+
1Q
#870000
0!
0;
1$
#875000
1!
1;
0$
1d
0e
0=
0+
0<
1O
1P
0Q
1=
1+
0P
1Q
#880000
0!
0;
1$
#885000
1!
1;
0$
1e
1<
0O
0=
0+
1P
0Q
#890000
0!
0;
1$
#895000
1!
1;
0$
0d
1c
0e
1=
1+
1>
0P
0<
1O
0>
1P
1Q
1,
0+
0,
19
0Q
09
#900000
0!
0;
1$
#905000
1!
1;
0$
1e
1<
0O
1+
1Q
#910000
0!
0;
1$
#915000
1!
1;
0$
1d
0e
0=
0+
0<
1O
1>
0P
0Q
1=
1+
1,
0>
1P
1Q
19
0,
09
#920000
0!
0;
1$
#925000
1!
1;
0$
1e
1<
0O
0=
0+
1>
0P
0Q
1,
19
#930000
0!
0;
1$
#935000
1!
1;
0$
0d
0c
0e
1b
1=
1+
0>
1P
0<
1O
0?
0,
0P
1Q
1?
1,
0+
1M
09
0M
19
0Q
#940000
0!
0;
1$
#945000
1!
1;
0$
1e
1R
1<
0O
1S
1+
1T
09
#950000
0!
0;
1$
#955000
1!
1;
0$
0e
0b
1U
0R
0<
1O
0,
0T
1:
1#
0S
0+
1T
#960000
0!
0;
1$
#965000
1!
1;
0$
1e
1<
0O
1+
1Q
#970000
0!
0;
1$
#975000
1!
1;
0$
1d
0e
0=
0+
0<
1O
1P
0Q
1=
1+
0P
1Q
#980000
0!
0;
1$
#985000
1!
1;
0$
1e
1<
0O
0=
0+
1P
0Q
#990000
0!
0;
1$
#995000
1!
1;
0$
0d
1c
0e
1=
1+
1>
0P
0<
1O
0>
1P
1Q
1,
0+
0,
19
0Q
09
#1000000
0!
0;
1$
#1005000
1!
1;
0$
1e
1<
0O
1+
1Q
#1010000
0!
0;
1$
#1015000
1!
1;
0$
1d
0e
0=
0+
0<
1O
1>
0P
0Q
1=
1+
1,
0>
1P
1Q
19
0,
09
#1020000
0!
0;
1$
#1025000
1!
1;
0$
1e
1<
0O
0=
0+
1>
0P
0Q
1,
19
#1030000
0!
0;
1$
#1035000
1!
1;
0$
0d
0c
0e
1b
1=
1+
0>
1P
0<
1O
0?
0,
0P
1Q
1?
1,
0+
1M
09
0M
19
0Q
#1040000
0!
0;
1$
#1045000
1!
1;
0$
1e
1R
1<
0O
1S
1+
0T
09
#1050000
0!
0;
1$
#1055000
1!
1;
0$
0e
0b
0U
0R
0<
1O
0,
1T
0:
0#
0S
0+
0T
#1060000
0!
0;
1$
#1065000
1!
1;
0$
1e
1<
0O
1+
1Q
#1070000
0!
0;
1$
#1075000
1!
1;
0$
1d
0e
0=
0+
0<
1O
1P
0Q
1=
1+
0P
1Q
#1080000
0!
0;
1$
#1085000
1!
1;
0$
1e
1<
0O
0=
0+
1P
0Q
#1090000
0!
0;
1$
#1095000
1!
1;
0$
0d
1c
0e
1=
1+
1>
0P
0<
1O
0>
1P
1Q
1,
0+
0,
19
0Q
09
#1100000
0!
0;
1$
#1105000
1!
1;
0$
1e
1<
0O
1+
1Q
#1110000
0!
0;
1$
#1115000
1!
1;
0$
1d
0e
0=
0+
0<
1O
1>
0P
0Q
1=
1+
1,
0>
1P
1Q
19
0,
09
#1120000
0!
0;
1$
#1125000
1!
1;
0$
1e
1<
0O
0=
0+
1>
0P
0Q
1,
19
#1130000
0!
0;
1$
#1135000
1!
1;
0$
0d
0c
0e
1b
1=
1+
0>
1P
0<
1O
0?
0,
0P
1Q
1?
1,
0+
1M
09
0M
19
0Q
#1140000
0!
0;
1$
#1145000
1!
1;
0$
1e
1R
1<
0O
1S
1+
1T
09
#1150000
0!
0;
1$
#1155000
1!
1;
0$
0e
0b
1U
0R
0<
1O
0,
0T
1:
1#
0S
0+
1T
#1160000
0!
0;
1$
#1165000
1!
1;
0$
1e
1<
0O
1+
1Q
#1170000
0!
0;
1$
#1175000
1!
1;
0$
1d
0e
0=
0+
0<
1O
1P
0Q
1=
1+
0P
1Q
#1180000
0!
0;
1$
#1185000
1!
1;
0$
1e
1<
0O
0=
0+
1P
0Q
#1190000
0!
0;
1$
#1195000
1!
1;
0$
0d
1c
0e
1=
1+
1>
0P
0<
1O
0>
1P
1Q
1,
0+
0,
19
0Q
09
#1200000
0!
0;
1$
#1205000
1!
1;
0$
1e
1<
0O
1+
1Q
#1210000
0!
0;
1$
#1215000
1!
1;
0$
1d
0e
0=
0+
0<
1O
1>
0P
0Q
1=
1+
1,
0>
1P
1Q
19
0,
09
#1220000
0!
0;
1$
#1225000
1!
1;
0$
1e
1<
0O
0=
0+
1>
0P
0Q
1,
19
#1230000
0!
0;
1$
#1235000
1!
1;
0$
0d
0c
0e
1b
1=
1+
0>
1P
0<
1O
0?
0,
0P
1Q
1?
1,
0+
1M
09
0M
19
0Q
#1240000
0!
0;
1$
#1245000
1!
1;
0$
1e
1R
1<
0O
1S
1+
0T
09
#1250000
0!
0;
1$
#1255000
1!
1;
0$
0e
0b
0U
0R
0<
1O
0,
1T
0:
0#
0S
0+
0T
#1260000
0!
0;
1$
#1265000
1!
1;
0$
1e
1<
0O
1+
1Q
#1270000
0!
0;
1$
#1275000
1!
1;
0$
1d
0e
0=
0+
0<
1O
1P
0Q
1=
1+
0P
1Q
#1280000
0!
0;
1$
#1285000
1!
1;
0$
1e
1<
0O
0=
0+
1P
0Q
#1290000
0!
0;
1$
#1295000
1!
1;
0$
0d
1c
0e
1=
1+
1>
0P
0<
1O
0>
1P
1Q
1,
0+
0,
19
0Q
09
#1300000
0!
0;
1$
#1305000
1!
1;
0$
1e
1<
0O
1+
1Q
#1310000
0!
0;
1$
#1315000
1!
1;
0$
1d
0e
0=
0+
0<
1O
1>
0P
0Q
1=
1+
1,
0>
1P
1Q
19
0,
09
#1320000
0!
0;
1$
#1325000
1!
1;
0$
1e
1<
0O
0=
0+
1>
0P
0Q
1,
19
#1330000
0!
0;
1$
#1335000
1!
1;
0$
0d
0c
0e
1b
1=
1+
0>
1P
0<
1O
0?
0,
0P
1Q
1?
1,
0+
1M
09
0M
19
0Q
#1340000
0!
0;
1$
#1345000
1!
1;
0$
1e
1R
1<
0O
1S
1+
1T
09
#1350000
0!
0;
1$
#1355000
1!
1;
0$
0e
0b
1U
0R
0<
1O
0,
0T
1:
1#
0S
0+
1T
#1360000
0!
0;
1$
#1365000
1!
1;
0$
1e
1<
0O
1+
1Q
#1370000
0!
0;
1$
#1375000
1!
1;
0$
1d
0e
0=
0+
0<
1O
1P
0Q
1=
1+
0P
1Q
#1380000
0!
0;
1$
#1385000
1!
1;
0$
1e
1<
0O
0=
0+
1P
0Q
#1390000
0!
0;
1$
#1395000
1!
1;
0$
0d
1c
0e
1=
1+
1>
0P
0<
1O
0>
1P
1Q
1,
0+
0,
19
0Q
09
#1400000
0!
0;
1$
#1405000
1!
1;
0$
1e
1<
0O
1+
1Q
#1410000
0!
0;
1$
#1415000
1!
1;
0$
1d
0e
0=
0+
0<
1O
1>
0P
0Q
1=
1+
1,
0>
1P
1Q
19
0,
09
#1420000
0!
0;
1$
#1425000
1!
1;
0$
1e
1<
0O
0=
0+
1>
0P
0Q
1,
19
#1430000
0!
0;
1$
#1435000
1!
1;
0$
0d
0c
0e
1b
1=
1+
0>
1P
0<
1O
0?
0,
0P
1Q
1?
1,
0+
1M
09
0M
19
0Q
#1440000
0!
0;
1$
#1445000
1!
1;
0$
1e
1R
1<
0O
1S
1+
0T
09
#1450000
0!
0;
1$
#1455000
1!
1;
0$
0e
0b
0U
0R
0<
1O
0,
1T
0:
0#
0S
0+
0T
#1460000
0!
0;
1$
#1465000
1!
1;
0$
1e
1<
0O
1+
1Q
#1470000
0!
0;
1$
#1475000
1!
1;
0$
1d
0e
0=
0+
0<
1O
1P
0Q
1=
1+
0P
1Q
#1480000
0!
0;
1$
#1485000
1!
1;
0$
1e
1<
0O
0=
0+
1P
0Q
#1490000
0!
0;
1$
#1495000
1!
1;
0$
0d
1c
0e
1=
1+
1>
0P
0<
1O
0>
1P
1Q
1,
0+
0,
19
0Q
09
#1500000
0!
0;
1$
#1505000
1!
1;
0$
1e
1<
0O
1+
1Q
#1510000
0!
0;
1$
#1515000
1!
1;
0$
1d
0e
0=
0+
0<
1O
1>
0P
0Q
1=
1+
1,
0>
1P
1Q
19
0,
09
#1520000
0!
0;
1$
#1525000
1!
1;
0$
1e
1<
0O
0=
0+
1>
0P
0Q
1,
19
#1530000
0!
0;
1$
#1535000
1!
1;
0$
0d
0c
0e
1b
1=
1+
0>
1P
0<
1O
0?
0,
0P
1Q
1?
1,
0+
1M
09
0M
19
0Q
#1540000
0!
0;
1$
#1545000
1!
1;
0$
1e
1R
1<
0O
1S
1+
1T
09
#1550000
0!
0;
1$
#1555000
1!
1;
0$
0e
0b
1U
0R
0<
1O
0,
0T
1:
1#
0S
0+
1T
#1560000
0!
0;
1$
#1565000
1!
1;
0$
1e
1<
0O
1+
1Q
#1570000
0!
0;
1$
#1575000
1!
1;
0$
1d
0e
0=
0+
0<
1O
1P
0Q
1=
1+
0P
1Q
#1580000
0!
0;
1$
#1585000
1!
1;
0$
1e
1<
0O
0=
0+
1P
0Q
#1590000
0!
0;
1$
#1595000
1!
1;
0$
0d
1c
0e
1=
1+
1>
0P
0<
1O
0>
1P
1Q
1,
0+
0,
19
0Q
09
#1600000
0!
0;
1$
#1605000
1!
1;
0$
1e
1<
0O
1+
1Q
#1610000
0!
0;
1$
#1615000
1!
1;
0$
1d
0e
0=
0+
0<
1O
1>
0P
0Q
1=
1+
1,
0>
1P
1Q
19
0,
09
#1620000
0!
0;
1$
#1625000
1!
1;
0$
1e
1<
0O
0=
0+
1>
0P
0Q
1,
19
#1630000
0!
0;
1$
#1635000
1!
1;
0$
0d
0c
0e
1b
1=
1+
0>
1P
0<
1O
0?
0,
0P
1Q
1?
1,
0+
1M
09
0M
19
0Q
#1640000
0!
0;
1$
#1645000
1!
1;
0$
1e
1R
1<
0O
1S
1+
0T
09
#1650000
0!
0;
1$
#1655000
1!
1;
0$
0e
0b
0U
0R
0<
1O
0,
1T
0:
0#
0S
0+
0T
#1660000
0!
0;
1$
#1665000
1!
1;
0$
1e
1<
0O
1+
1Q
#1670000
0!
0;
1$
#1675000
1!
1;
0$
1d
0e
0=
0+
0<
1O
1P
0Q
1=
1+
0P
1Q
#1680000
0!
0;
1$
#1685000
1!
1;
0$
1e
1<
0O
0=
0+
1P
0Q
#1690000
0!
0;
1$
#1695000
1!
1;
0$
0d
1c
0e
1=
1+
1>
0P
0<
1O
0>
1P
1Q
1,
0+
0,
19
0Q
09
#1700000
0!
0;
1$
#1705000
1!
1;
0$
1e
1<
0O
1+
1Q
#1710000
0!
0;
1$
#1715000
1!
1;
0$
1d
0e
0=
0+
0<
1O
1>
0P
0Q
1=
1+
1,
0>
1P
1Q
19
0,
09
#1720000
0!
0;
1$
#1725000
1!
1;
0$
1e
1<
0O
0=
0+
1>
0P
0Q
1,
19
#1730000
0!
0;
1$
#1735000
1!
1;
0$
0d
0c
0e
1b
1=
1+
0>
1P
0<
1O
0?
0,
0P
1Q
1?
1,
0+
1M
09
0M
19
0Q
#1740000
0!
0;
1$
#1745000
1!
1;
0$
1e
1R
1<
0O
1S
1+
1T
09
#1750000
0!
0;
1$
#1755000
1!
1;
0$
0e
0b
1U
0R
0<
1O
0,
0T
1:
1#
0S
0+
1T
#1760000
0!
0;
1$
#1765000
1!
1;
0$
1e
1<
0O
1+
1Q
#1770000
0!
0;
1$
#1775000
1!
1;
0$
1d
0e
0=
0+
0<
1O
1P
0Q
1=
1+
0P
1Q
#1780000
0!
0;
1$
#1785000
1!
1;
0$
1e
1<
0O
0=
0+
1P
0Q
#1790000
0!
0;
1$
#1795000
1!
1;
0$
0d
1c
0e
1=
1+
1>
0P
0<
1O
0>
1P
1Q
1,
0+
0,
19
0Q
09
#1800000
0!
0;
1$
#1805000
1!
1;
0$
1e
1<
0O
1+
1Q
#1810000
0!
0;
1$
#1815000
1!
1;
0$
1d
0e
0=
0+
0<
1O
1>
0P
0Q
1=
1+
1,
0>
1P
1Q
19
0,
09
#1820000
0!
0;
1$
#1825000
1!
1;
0$
1e
1<
0O
0=
0+
1>
0P
0Q
1,
19
#1830000
0!
0;
1$
#1835000
1!
1;
0$
0d
0c
0e
1b
1=
1+
0>
1P
0<
1O
0?
0,
0P
1Q
1?
1,
0+
1M
09
0M
19
0Q
#1840000
0!
0;
1$
#1845000
1!
1;
0$
1e
1R
1<
0O
1S
1+
0T
09
#1850000
0!
0;
1$
#1855000
1!
1;
0$
0e
0b
0U
0R
0<
1O
0,
1T
0:
0#
0S
0+
0T
#1860000
0!
0;
1$
#1865000
1!
1;
0$
1e
1<
0O
1+
1Q
#1870000
0!
0;
1$
#1875000
1!
1;
0$
1d
0e
0=
0+
0<
1O
1P
0Q
1=
1+
0P
1Q
#1880000
0!
0;
1$
#1885000
1!
1;
0$
1e
1<
0O
0=
0+
1P
0Q
#1890000
0!
0;
1$
#1895000
1!
1;
0$
0d
1c
0e
1=
1+
1>
0P
0<
1O
0>
1P
1Q
1,
0+
0,
19
0Q
09
#1900000
0!
0;
1$
#1905000
1!
1;
0$
1e
1<
0O
1+
1Q
#1910000
0!
0;
1$
#1915000
1!
1;
0$
1d
0e
0=
0+
0<
1O
1>
0P
0Q
1=
1+
1,
0>
1P
1Q
19
0,
09
#1920000
0!
0;
1$
#1925000
1!
1;
0$
1e
1<
0O
0=
0+
1>
0P
0Q
1,
19
#1930000
0!
0;
1$
#1935000
1!
1;
0$
0d
0c
0e
1b
1=
1+
0>
1P
0<
1O
0?
0,
0P
1Q
1?
1,
0+
1M
09
0M
19
0Q
#1940000
0!
0;
1$
#1945000
1!
1;
0$
1e
1R
1<
0O
1S
1+
1T
09
#1950000
0!
0;
1$
#1955000
1!
1;
0$
0e
0b
1U
0R
0<
1O
0,
0T
1:
1#
0S
0+
1T
#1960000
0!
0;
1$
#1965000
1!
1;
0$
1e
1<
0O
1+
1Q
#1970000
0!
0;
1$
#1975000
1!
1;
0$
1d
0e
0=
0+
0<
1O
1P
0Q
1=
1+
0P
1Q
#1980000
0!
0;
1$
#1985000
1!
1;
0$
1e
1<
0O
0=
0+
1P
0Q
#1990000
0!
0;
1$
#1995000
1!
1;
0$
0d
1c
0e
1=
1+
1>
0P
0<
1O
0>
1P
1Q
1,
0+
0,
19
0Q
09
#2000000
0!
0;
1$
#2005000
1!
1;
0$
1e
1<
0O
1+
1Q
#2010000
0!
0;
1$
#2015000
1!
1;
0$
1d
0e
0=
0+
0<
1O
1>
0P
0Q
1=
1+
1,
0>
1P
1Q
19
0,
09
#2020000
0!
0;
1$
#2025000
1!
1;
0$
1e
1<
0O
0=
0+
1>
0P
0Q
1,
19
#2030000
0!
0;
1$
#2035000
1!
1;
0$
0d
0c
0e
1b
1=
1+
0>
1P
0<
1O
0?
0,
0P
1Q
1?
1,
0+
1M
09
0M
19
0Q
#2040000
0!
0;
1$
#2045000
1!
1;
0$
1e
1R
1<
0O
1S
1+
0T
09
#2050000
0!
0;
1$
#2055000
1!
1;
0$
0e
0b
0U
0R
0<
1O
0,
1T
0:
0#
0S
0+
0T
#2060000
0!
0;
1$
#2065000
1!
1;
0$
1e
1<
0O
1+
1Q
#2070000
0!
0;
1$
#2075000
1!
1;
0$
1d
0e
0=
0+
0<
1O
1P
0Q
1=
1+
0P
1Q
#2080000
0!
0;
1$
#2085000
1!
1;
0$
1e
1<
0O
0=
0+
1P
0Q
#2090000
0!
0;
1$
#2095000
1!
1;
0$
0d
1c
0e
1=
1+
1>
0P
0<
1O
0>
1P
1Q
1,
0+
0,
19
0Q
09
#2100000
0!
0;
1$
#2105000
1!
1;
0$
1e
1<
0O
1+
1Q
#2110000
0!
0;
1$
#2115000
1!
1;
0$
1d
0e
0=
0+
0<
1O
1>
0P
0Q
1=
1+
1,
0>
1P
1Q
19
0,
09
#2120000
0!
0;
1$
#2125000
1!
1;
0$
1e
1<
0O
0=
0+
1>
0P
0Q
1,
19
#2130000
0!
0;
1$
#2135000
1!
1;
0$
0d
0c
0e
1b
1=
1+
0>
1P
0<
1O
0?
0,
0P
1Q
1?
1,
0+
1M
09
0M
19
0Q
