Verilog/washing_machine/key_scan_d/simulation/qsim/key_scan.msim.vcd
$comment
	File created using the following command:
		vcd file key_scan.msim.vcd -direction
$end
$date
	Sat May 12 13:25:05 2018
$end
$version
	ModelSim Version 10.1d
$end
$timescale
	1ps
$end
$scope module key_scan_vlg_vec_tst $end
$var reg 1 ! CLK $end
$var reg 1 " RST_N $end
$var reg 1 # key_p $end
$var reg 1 $ key_s $end
$var reg 1 % key_w $end
$var wire 1 & key_value [2] $end
$var wire 1 ' key_value [1] $end
$var wire 1 ( key_value [0] $end
$var wire 1 ) sampler $end
$scope module i1 $end
$var wire 1 * gnd $end
$var wire 1 + vcc $end
$var wire 1 , unknown $end
$var tri1 1 - devclrn $end
$var tri1 1 . devpor $end
$var tri1 1 / devoe $end
$var wire 1 0 key_p~combout $end
$var wire 1 1 key_s~combout $end
$var wire 1 2 key_w~combout $end
$var wire 1 3 CLK~combout $end
$var wire 1 4 key_rst~0_combout $end
$var wire 1 5 RST_N~combout $end
$var wire 1 6 key_rst~regout $end
$var wire 1 7 Mux1~0_combout $end
$var wire 1 8 key_value[1]~reg0_regout $end
$var wire 1 9 key_value[0]~0_combout $end
$var wire 1 : key_value[0]~1_combout $end
$var wire 1 ; key_value[2]~reg0_regout $end
$var wire 1 < key_value[0]~2_combout $end
$var wire 1 = key_value[0]~3_combout $end
$var wire 1 > key_value[0]~reg0_regout $end
$var wire 1 ? key_temp [2] $end
$var wire 1 @ key_temp [1] $end
$var wire 1 A key_temp [0] $end
$upscope $end
$upscope $end
$enddefinitions $end
#0
$dumpvars
0!
1"
1#
1$
1%
0(
0'
0&
x)
0*
1+
x,
1-
1.
1/
10
11
12
03
04
15
06
07
08
09
0:
0;
0<
0=
0>
0A
0@
0?
$end
#5000
1!
13
0)
#10000
0!
03
1)
#15000
1!
13
0)
#20000
0!
03
1)
#25000
1!
13
0)
#30000
0"
0!
05
03
1)
#35000
1!
13
0)
#40000
0!
03
1)
#45000
1!
13
0)
#50000
0!
03
1)
#55000
1!
13
0)
#60000
0!
03
1)
#65000
1!
13
0)
#70000
1"
0!
15
03
1)
#75000
1!
13
0)
#80000
0!
03
1)
#85000
1!
13
0)
#90000
0!
03
1)
#95000
1!
13
0)
#100000
0!
03
1)
#105000
1!
13
0)
#110000
0$
0!
01
03
1)
1A
1:
14
1=
#115000
1!
13
0)
1>
16
1(
0A
0:
04
#120000
0!
03
1)
#125000
1!
13
0)
06
#130000
0!
03
1)
#135000
1!
13
0)
#140000
0!
03
1)
#145000
1!
13
0)
#150000
1$
0!
11
03
1)
#155000
1!
13
0)
#160000
0!
03
1)
#165000
1!
13
0)
#170000
0!
03
1)
#175000
1!
13
0)
#180000
0!
03
1)
#185000
1!
13
0)
#190000
0!
03
1)
#195000
1!
13
0)
#200000
0!
03
1)
#205000
1!
13
0)
#210000
0%
0!
02
03
1)
1@
1<
19
17
14
1:
0=
#215000
1!
13
0)
0>
18
16
1=
0<
0(
1'
0@
0:
09
07
04
0=
#220000
0!
03
1)
#225000
1!
13
0)
06
#230000
0!
03
1)
#235000
1!
13
0)
#240000
0!
03
1)
#245000
1!
13
0)
#250000
1%
0!
12
03
1)
#255000
1!
13
0)
#260000
0!
03
1)
#265000
1!
13
0)
#270000
0!
03
1)
#275000
1!
13
0)
#280000
0!
03
1)
#285000
1!
13
0)
#290000
0!
03
1)
#295000
1!
13
0)
#300000
0!
03
1)
#305000
1!
13
0)
#310000
0!
03
1)
#315000
1!
13
0)
#320000
0!
03
1)
#325000
1!
13
0)
#330000
0!
03
1)
#335000
1!
13
0)
#340000
0!
03
1)
#345000
1!
13
0)
#350000
0!
03
1)
#355000
1!
13
0)
#360000
0%
0!
02
03
1)
1@
19
17
14
1:
1=
#365000
1!
13
0)
1>
16
09
1(
0:
0@
19
07
04
#370000
0!
03
1)
#375000
1!
13
0)
06
#380000
0!
03
1)
#385000
1!
13
0)
#390000
1%
0!
12
03
1)
#395000
1!
13
0)
#400000
0!
03
1)
#405000
1!
13
0)
#410000
0!
03
1)
#415000
1!
13
0)
#420000
0!
03
1)
#425000
1!
13
0)
#430000
0!
03
1)
#435000
1!
13
0)
#440000
0!
03
1)
#445000
1!
13
0)
#450000
0!
03
1)
#455000
1!
13
0)
#460000
0!
03
1)
#465000
1!
13
0)
#470000
0#
0!
00
03
1)
1?
1<
1:
14
0=
#475000
1!
13
0)
0>
1;
08
16
1=
0<
0(
1&
0'
0?
0:
04
0=
#480000
0!
03
1)
#485000
1!
13
0)
06
#490000
0!
03
1)
#495000
1!
13
0)
#500000
0!
03
1)
#505000
1!
13
0)
#510000
0!
03
1)
#515000
1!
13
0)
#520000
0!
03
1)
#525000
1!
13
0)
#530000
1#
0!
10
03
1)
#535000
1!
13
0)
#540000
0!
03
1)
#545000
1!
13
0)
#550000
0!
03
1)
#555000
1!
13
0)
#560000
0!
03
1)
#565000
1!
13
0)
#570000
0!
03
1)
#575000
1!
13
0)
#580000
0!
03
1)
#585000
1!
13
0)
#590000
0!
03
1)
#595000
1!
13
0)
#600000
0!
03
1)
#605000
1!
13
0)
#610000
0!
03
1)
#615000
1!
13
0)
#620000
0!
03
1)
#625000
1!
13
0)
#630000
0!
03
1)
#635000
1!
13
0)
#640000
0!
03
1)
#645000
1!
13
0)
#650000
0#
0!
00
03
1)
1?
1:
14
1=
#655000
1!
13
0)
1>
16
09
1(
0:
0?
04
#660000
0!
03
1)
#665000
1!
13
0)
06
#670000
0!
03
1)
#675000
1!
13
0)
#680000
1#
0!
10
03
1)
#685000
1!
13
0)
#690000
0!
03
1)
#695000
1!
13
0)
#700000
0!
03
1)
#705000
1!
13
0)
#710000
0!
03
1)
#715000
1!
13
0)
#720000
0!
03
1)
#725000
1!
13
0)
#730000
0!
03
1)
#735000
1!
13
0)
#740000
0!
03
1)
#745000
1!
13
0)
#750000
0!
03
1)
#755000
1!
13
0)
#760000
0!
03
1)
#765000
1!
13
0)
#770000
0!
03
1)
#775000
1!
13
0)
#780000
0!
03
1)
#785000
1!
13
0)
#790000
0$
0!
01
03
1)
1A
1:
14
#795000
1!
13
0)
0;
16
0&
0A
0:
04
#800000
0!
03
1)
#805000
1!
13
0)
06
#810000
0!
03
1)
#815000
1!
13
0)
#820000
0!
03
1)
#825000
1!
13
0)
#830000
1$
0!
11
03
1)
#835000
1!
13
0)
#840000
0!
03
1)
#845000
1!
13
0)
#850000
0!
03
1)
#855000
1!
13
0)
#860000
0!
03
1)
#865000
1!
13
0)
#870000
0!
03
1)
#875000
1!
13
0)
#880000
0!
03
1)
#885000
1!
13
0)
#890000
0!
03
1)
#895000
1!
13
0)
#900000
0!
03
1)
#905000
1!
13
0)
#910000
0!
03
1)
#915000
1!
13
0)
#920000
0!
03
1)
#925000
1!
13
0)
#930000
0!
03
1)
#935000
1!
13
0)
#940000
0!
03
1)
#945000
1!
13
0)
#950000
0!
03
1)
#955000
1!
13
0)
#960000
0!
03
1)
#965000
1!
13
0)
#970000
0!
03
1)
#975000
1!
13
0)
#980000
0!
03
1)
#985000
1!
13
0)
#990000
0!
03
1)
#995000
1!
13
0)
