Verilog/key/simulation/qsim/key_mod.msim.vcd
$comment
	File created using the following command:
		vcd file key_mod.msim.vcd -direction
$end
$date
	Sun May 06 17:32:04 2018
$end
$version
	ModelSim Version 10.1d
$end
$timescale
	1ps
$end
$scope module key_mod_vlg_vec_tst $end
$var reg 1 ! CLK $end
$var reg 1 " RST_N $end
$var reg 1 # key $end
$var wire 1 $ key_press $end
$var wire 1 % sampler $end
$scope module i1 $end
$var wire 1 & gnd $end
$var wire 1 ' vcc $end
$var wire 1 ( unknown $end
$var tri1 1 ) devclrn $end
$var tri1 1 * devpor $end
$var tri1 1 + devoe $end
$var wire 1 , time_count[0]~10_combout $end
$var wire 1 - time_count[1]~12_combout $end
$var wire 1 . time_count[2]~14_combout $end
$var wire 1 / time_count[3]~16_combout $end
$var wire 1 0 time_count[4]~18_combout $end
$var wire 1 1 time_count[5]~20_combout $end
$var wire 1 2 time_count[6]~22_combout $end
$var wire 1 3 Mux2~0_combout $end
$var wire 1 4 LessThan0~0_combout $end
$var wire 1 5 CLK~combout $end
$var wire 1 6 key~combout $end
$var wire 1 7 time_count[0]~11 $end
$var wire 1 8 time_count[1]~13 $end
$var wire 1 9 time_count[2]~15 $end
$var wire 1 : time_count[3]~17 $end
$var wire 1 ; time_count[4]~19 $end
$var wire 1 < time_count[5]~21 $end
$var wire 1 = time_count[6]~23 $end
$var wire 1 > time_count[7]~24_combout $end
$var wire 1 ? RST_N~combout $end
$var wire 1 @ Decoder0~0_combout $end
$var wire 1 A time_count[7]~25 $end
$var wire 1 B time_count[8]~26_combout $end
$var wire 1 C time_count[8]~27 $end
$var wire 1 D time_count[9]~28_combout $end
$var wire 1 E LessThan0~1_combout $end
$var wire 1 F Mux1~8_combout $end
$var wire 1 G s_now~0_combout $end
$var wire 1 H s_now~regout $end
$var wire 1 I s_last~regout $end
$var wire 1 J Mux2~1_combout $end
$var wire 1 K Mux2~2_combout $end
$var wire 1 L key_press~0_combout $end
$var wire 1 M key_press~reg0_regout $end
$var wire 1 N time_count [9] $end
$var wire 1 O time_count [8] $end
$var wire 1 P time_count [7] $end
$var wire 1 Q time_count [6] $end
$var wire 1 R time_count [5] $end
$var wire 1 S time_count [4] $end
$var wire 1 T time_count [3] $end
$var wire 1 U time_count [2] $end
$var wire 1 V time_count [1] $end
$var wire 1 W time_count [0] $end
$var wire 1 X step_cnt [2] $end
$var wire 1 Y step_cnt [1] $end
$var wire 1 Z step_cnt [0] $end
$upscope $end
$upscope $end
$enddefinitions $end
#0
$dumpvars
0!
1"
1#
1$
x%
0&
1'
x(
1)
1*
1+
1,
0-
0.
0/
00
01
02
03
14
05
16
07
18
09
1:
0;
1<
0=
0>
1?
0@
1A
0B
0C
0D
1E
0F
0G
0H
0I
0J
0K
0L
0M
0W
0V
0U
0T
0S
0R
0Q
0P
0O
0N
0Z
0Y
zX
$end
#25000
1!
15
0%
#50000
0!
05
1%
#75000
1!
15
0%
#100000
0!
05
1%
#125000
1!
15
0%
#150000
0!
05
1%
#160000
0"
0?
0%
#175000
1!
15
1%
#200000
0!
05
0%
#225000
1!
15
1%
#250000
0!
05
0%
#275000
1!
15
1%
#300000
0!
05
0%
#320000
1"
1?
1%
#325000
1!
15
0%
#350000
0!
05
1%
#375000
1!
15
0%
#400000
0!
05
1%
#425000
1!
15
0%
#450000
0!
05
1%
#475000
1!
15
0%
#500000
0!
05
1%
#525000
1!
15
0%
#550000
0!
05
1%
#575000
1!
15
0%
#600000
0!
05
1%
#625000
1!
15
0%
#650000
0!
05
1%
#675000
1!
15
0%
#680000
0#
06
1%
1G
#700000
0!
05
0%
#725000
1!
15
1%
1H
1J
1K
#730000
1#
16
0%
0G
#750000
0!
05
1%
#775000
1!
15
0%
1Z
1I
0H
0J
1F
1@
0K
#780000
0#
06
1%
1G
#800000
0!
05
0%
#825000
1!
15
1%
0Z
0I
1H
1Y
1L
0@
13
1K
#830000
1#
16
0%
0L
0G
0F
03
0K
#850000
0!
05
1%
#875000
1!
15
0%
1I
0H
0Y
#880000
0#
06
1%
1G
#900000
0!
05
0%
#925000
1!
15
1%
0I
1H
1J
1K
#930000
1#
16
0%
0G
#950000
0!
05
1%
#975000
1!
15
0%
1Z
1I
0H
0J
1F
1@
0K
#980000
0#
06
1%
1G
#1000000
0!
05
0%
#1025000
1!
15
1%
0Z
0I
1H
1Y
1L
0@
13
1K
#1030000
1#
16
0%
0L
0G
0F
03
0K
#1050000
0!
05
1%
#1075000
1!
15
0%
1I
0H
0Y
#1080000
0#
06
1%
1G
#1100000
0!
05
0%
#1125000
1!
15
1%
0I
1H
1J
1K
#1130000
1#
16
0%
0G
#1150000
0!
05
1%
#1175000
1!
15
0%
1Z
1I
0H
0J
1F
1@
0K
#1180000
0#
06
1%
1G
#1200000
0!
05
0%
#1225000
1!
15
1%
0Z
0I
1H
1Y
1L
0@
13
1K
#1230000
1#
16
0%
0L
0G
0F
03
0K
#1250000
0!
05
1%
#1275000
1!
15
0%
1I
0H
0Y
#1280000
0#
06
1%
1G
#1300000
0!
05
0%
#1325000
1!
15
1%
0I
1H
1J
1K
#1330000
1#
16
0%
0G
#1350000
0!
05
1%
#1375000
1!
15
0%
1Z
1I
0H
0J
1F
1@
0K
#1380000
0#
06
1%
1G
#1400000
0!
05
0%
#1425000
1!
15
1%
0Z
0I
1H
1Y
1L
0@
13
1K
#1430000
1#
16
0%
0L
0G
0F
03
0K
#1450000
0!
05
1%
#1475000
1!
15
0%
1I
0H
0Y
#1480000
0#
06
1%
1G
#1500000
0!
05
0%
#1525000
1!
15
1%
0I
1H
1J
1K
#1530000
1#
16
0%
0G
#1550000
0!
05
1%
#1575000
1!
15
0%
1Z
1I
0H
0J
1F
1@
0K
#1580000
0#
06
1%
1G
#1600000
0!
05
0%
#1625000
1!
15
1%
0Z
0I
1H
1Y
1L
0@
13
1K
#1630000
1#
16
0%
0L
0G
0F
03
0K
#1640000
0#
06
1%
1L
1G
1F
13
1K
#1650000
0!
05
0%
#1675000
1!
15
1%
1M
1Z
1I
0$
#1700000
0!
05
0%
#1725000
1!
15
1%
#1750000
0!
05
0%
#1775000
1!
15
1%
#1800000
0!
05
0%
#1825000
1!
15
1%
#1850000
0!
05
0%
#1875000
1!
15
1%
#1900000
0!
05
0%
#1925000
1!
15
1%
#1950000
0!
05
0%
#1975000
1!
15
1%
#2000000
0!
05
0%
#2025000
1!
15
1%
#2050000
0!
05
0%
#2075000
1!
15
1%
#2100000
0!
05
0%
#2125000
1!
15
1%
#2150000
0!
05
0%
#2175000
1!
15
1%
#2200000
0!
05
0%
#2225000
1!
15
1%
#2250000
0!
05
0%
#2275000
1!
15
1%
#2300000
0!
05
0%
#2325000
1!
15
1%
#2350000
0!
05
0%
#2375000
1!
15
1%
#2400000
0!
05
0%
#2425000
1!
15
1%
#2450000
0!
05
0%
#2475000
1!
15
1%
#2500000
0!
05
0%
#2525000
1!
15
1%
#2550000
0!
05
0%
#2575000
1!
15
1%
#2600000
0!
05
0%
#2625000
1!
15
1%
#2650000
0!
05
0%
#2675000
1!
15
1%
#2700000
0!
05
0%
#2725000
1!
15
1%
#2750000
0!
05
0%
#2775000
1!
15
1%
#2800000
0!
05
0%
#2825000
1!
15
1%
#2850000
0!
05
0%
#2875000
1!
15
1%
#2900000
0!
05
0%
#2925000
1!
15
1%
#2950000
0!
05
0%
#2975000
1!
15
1%
#3000000
0!
05
0%
#3025000
1!
15
1%
#3050000
0!
05
0%
#3075000
1!
15
1%
#3100000
0!
05
0%
#3125000
1!
15
1%
#3150000
0!
05
0%
#3175000
1!
15
1%
#3200000
0!
05
0%
#3225000
1!
15
1%
#3250000
0!
05
0%
#3275000
1!
15
1%
#3300000
0!
05
0%
#3325000
1!
15
1%
#3350000
0!
05
0%
#3375000
1!
15
1%
#3400000
0!
05
0%
#3425000
1!
15
1%
#3450000
0!
05
0%
#3475000
1!
15
1%
#3500000
0!
05
0%
#3525000
1!
15
1%
#3550000
0!
05
0%
#3575000
1!
15
1%
#3600000
0!
05
0%
#3625000
1!
15
1%
#3650000
0!
05
0%
#3675000
1!
15
1%
#3700000
0!
05
0%
#3725000
1!
15
1%
#3750000
0!
05
0%
#3775000
1!
15
1%
#3800000
1#
0!
16
05
0%
0L
0G
0F
03
0K
#3825000
1!
15
1%
0M
0Z
0H
0Y
1$
#3850000
0!
05
0%
#3875000
1!
15
1%
0I
#3900000
0!
05
0%
#3925000
1!
15
1%
#3950000
0!
05
0%
#3975000
1!
15
1%
#4000000
0!
05
0%
#4025000
1!
15
1%
#4050000
0!
05
0%
#4075000
1!
15
1%
#4100000
0!
05
0%
#4125000
1!
15
1%
#4150000
0!
05
0%
#4175000
1!
15
1%
#4200000
0!
05
0%
#4225000
1!
15
1%
#4250000
0!
05
0%
#4275000
1!
15
1%
#4300000
0!
05
0%
#4325000
1!
15
1%
#4350000
0!
05
0%
#4375000
1!
15
1%
#4400000
0!
05
0%
#4425000
1!
15
1%
#4450000
0!
05
0%
#4475000
1!
15
1%
#4500000
0!
05
0%
#4525000
1!
15
1%
#4550000
0!
05
0%
#4575000
1!
15
1%
#4600000
0!
05
0%
#4625000
1!
15
1%
#4650000
0!
05
0%
#4675000
1!
15
1%
#4700000
0!
05
0%
#4725000
1!
15
1%
#4750000
0!
05
0%
#4775000
1!
15
1%
#4800000
0!
05
0%
#4825000
1!
15
1%
#4850000
0!
05
0%
#4875000
1!
15
1%
#4900000
0!
05
0%
#4925000
1!
15
1%
#4950000
0!
05
0%
#4975000
1!
15
1%
