Verilog/washing_machine/washing_state_machine/simulation/qsim/washing_state_machine.msim.vcd
$comment
	File created using the following command:
		vcd file washing_state_machine.msim.vcd -direction
$end
$date
	Sun May 06 16:26:03 2018
$end
$version
	ModelSim Version 10.1d
$end
$timescale
	1ps
$end
$scope module washing_state_machine_vlg_vec_tst $end
$var reg 1 ! CLK $end
$var reg 1 " RST_N $end
$var reg 1 # fangshui_flag $end
$var reg 3 $ key [2:0] $end
$var wire 1 % led_fangshui $end
$var wire 1 & led_motor_f $end
$var wire 1 ' led_motor_o $end
$var wire 1 ( led_start $end
$var wire 1 ) led_tuoshui $end
$var wire 1 * led_zhushui $end
$var wire 1 + sampler $end
$scope module i1 $end
$var wire 1 , gnd $end
$var wire 1 - vcc $end
$var wire 1 . unknown $end
$var tri1 1 / devclrn $end
$var tri1 1 0 devpor $end
$var tri1 1 1 devoe $end
$var wire 1 2 time_cnt[0]~24_combout $end
$var wire 1 3 time_cnt[1]~26_combout $end
$var wire 1 4 time_cnt[6]~36_combout $end
$var wire 1 5 time_cnt[8]~40_combout $end
$var wire 1 6 time_cnt[9]~48_combout $end
$var wire 1 7 time_cnt[10]~50_combout $end
$var wire 1 8 time_cnt[11]~52_combout $end
$var wire 1 9 time_cnt[12]~54_combout $end
$var wire 1 : time_cnt[16]~62_combout $end
$var wire 1 ; Add1~0_combout $end
$var wire 1 < STATE.END~regout $end
$var wire 1 = Selector28~1_combout $end
$var wire 1 > LessThan3~0_combout $end
$var wire 1 ? LessThan3~4_combout $end
$var wire 1 @ Selector28~2_combout $end
$var wire 1 A led_motor_f~0_combout $end
$var wire 1 B STATE.FANGSHUI~regout $end
$var wire 1 C Selector32~0_combout $end
$var wire 1 D LessThan2~1_combout $end
$var wire 1 E Selector24~0_combout $end
$var wire 1 F Selector27~2_combout $end
$var wire 1 G Selector27~3_combout $end
$var wire 1 H time_cnt[11]~42_combout $end
$var wire 1 I time_cnt[11]~44_combout $end
$var wire 1 J Selector25~0_combout $end
$var wire 1 K Add1~2_combout $end
$var wire 1 L step_cnt2[0]~1_combout $end
$var wire 1 M Selector25~1_combout $end
$var wire 1 N led_tuoshui~3_combout $end
$var wire 1 O Selector27~4_combout $end
$var wire 1 P CLK~combout $end
$var wire 1 Q Equal1~0_combout $end
$var wire 1 R fangshui_flag~combout $end
$var wire 1 S Selector23~1_combout $end
$var wire 1 T STATE.IDLE~0_combout $end
$var wire 1 U RST_N~combout $end
$var wire 1 V STATE.IDLE~regout $end
$var wire 1 W step_cnt1[0]~0_combout $end
$var wire 1 X Selector28~0_combout $end
$var wire 1 Y time_cnt[11]~22_combout $end
$var wire 1 Z Selector28~3_combout $end
$var wire 1 [ led_start~reg0_regout $end
$var wire 1 \ led_zhushui~0_combout $end
$var wire 1 ] led_zhushui~1_combout $end
$var wire 1 ^ led_zhushui~reg0_regout $end
$var wire 1 _ Add1~1 $end
$var wire 1 ` Add1~3_combout $end
$var wire 1 a Add1~4 $end
$var wire 1 b Add1~7 $end
$var wire 1 c Add1~9 $end
$var wire 1 d Add1~12_combout $end
$var wire 1 e Equal0~0_combout $end
$var wire 1 f Selector23~2_combout $end
$var wire 1 g Selector23~3_combout $end
$var wire 1 h STATE.START~regout $end
$var wire 1 i Selector24~1_combout $end
$var wire 1 j Selector23~0_combout $end
$var wire 1 k time_cnt[11]~23_combout $end
$var wire 1 l Selector24~2_combout $end
$var wire 1 m STATE.XIDI~regout $end
$var wire 1 n time_cnt[0]~25 $end
$var wire 1 o time_cnt[1]~27 $end
$var wire 1 p time_cnt[2]~29 $end
$var wire 1 q time_cnt[3]~30_combout $end
$var wire 1 r time_cnt[11]~43_combout $end
$var wire 1 s time_cnt[3]~31 $end
$var wire 1 t time_cnt[4]~33 $end
$var wire 1 u time_cnt[5]~35 $end
$var wire 1 v time_cnt[6]~37 $end
$var wire 1 w time_cnt[7]~39 $end
$var wire 1 x time_cnt[8]~41 $end
$var wire 1 y time_cnt[9]~49 $end
$var wire 1 z time_cnt[10]~51 $end
$var wire 1 { time_cnt[11]~53 $end
$var wire 1 | time_cnt[12]~55 $end
$var wire 1 } time_cnt[13]~56_combout $end
$var wire 1 ~ time_cnt[13]~57 $end
$var wire 1 !! time_cnt[14]~58_combout $end
$var wire 1 "! time_cnt[14]~59 $end
$var wire 1 #! time_cnt[15]~60_combout $end
$var wire 1 $! LessThan3~1_combout $end
$var wire 1 %! time_cnt[15]~61 $end
$var wire 1 &! time_cnt[16]~63 $end
$var wire 1 '! time_cnt[17]~64_combout $end
$var wire 1 (! time_cnt[17]~65 $end
$var wire 1 )! time_cnt[18]~66_combout $end
$var wire 1 *! time_cnt[18]~67 $end
$var wire 1 +! time_cnt[19]~68_combout $end
$var wire 1 ,! LessThan3~2_combout $end
$var wire 1 -! time_cnt[7]~38_combout $end
$var wire 1 .! LessThan3~3_combout $end
$var wire 1 /! time_cnt[4]~32_combout $end
$var wire 1 0! time_cnt[5]~34_combout $end
$var wire 1 1! LessThan3~5_combout $end
$var wire 1 2! time_cnt[11]~45_combout $end
$var wire 1 3! time_cnt[11]~46_combout $end
$var wire 1 4! LessThan2~0_combout $end
$var wire 1 5! LessThan3~6_combout $end
$var wire 1 6! Selector24~3_combout $end
$var wire 1 7! Selector26~3_combout $end
$var wire 1 8! Selector26~2_combout $end
$var wire 1 9! STATE.TUOSHUI~regout $end
$var wire 1 :! time_cnt[11]~70_combout $end
$var wire 1 ;! time_cnt[11]~47_combout $end
$var wire 1 <! time_cnt[2]~28_combout $end
$var wire 1 =! LessThan1~0_combout $end
$var wire 1 >! step_cnt2[0]~0_combout $end
$var wire 1 ?! Selector60~0_combout $end
$var wire 1 @! step_cnt2[0]~2_combout $end
$var wire 1 A! step_cnt1[0]~1_combout $end
$var wire 1 B! step_cnt1[0]~2_combout $end
$var wire 1 C! step_cnt1[4]~3_combout $end
$var wire 1 D! Add1~5_combout $end
$var wire 1 E! Add1~8_combout $end
$var wire 1 F! Add1~10_combout $end
$var wire 1 G! Add1~6_combout $end
$var wire 1 H! Add1~11_combout $end
$var wire 1 I! LessThan0~0_combout $end
$var wire 1 J! Selector31~0_combout $end
$var wire 1 K! Selector30~1_combout $end
$var wire 1 L! led_motor_f~1_combout $end
$var wire 1 M! led_motor_f~reg0_regout $end
$var wire 1 N! Selector31~1_combout $end
$var wire 1 O! led_motor_o~0_combout $end
$var wire 1 P! led_motor_o~reg0_regout $end
$var wire 1 Q! Selector30~0_combout $end
$var wire 1 R! led_fangshui~0_combout $end
$var wire 1 S! led_fangshui~reg0_regout $end
$var wire 1 T! Selector33~0_combout $end
$var wire 1 U! led_tuoshui~2_combout $end
$var wire 1 V! led_tuoshui~reg0_regout $end
$var wire 1 W! time_cnt [19] $end
$var wire 1 X! time_cnt [18] $end
$var wire 1 Y! time_cnt [17] $end
$var wire 1 Z! time_cnt [16] $end
$var wire 1 [! time_cnt [15] $end
$var wire 1 \! time_cnt [14] $end
$var wire 1 ]! time_cnt [13] $end
$var wire 1 ^! time_cnt [12] $end
$var wire 1 _! time_cnt [11] $end
$var wire 1 `! time_cnt [10] $end
$var wire 1 a! time_cnt [9] $end
$var wire 1 b! time_cnt [8] $end
$var wire 1 c! time_cnt [7] $end
$var wire 1 d! time_cnt [6] $end
$var wire 1 e! time_cnt [5] $end
$var wire 1 f! time_cnt [4] $end
$var wire 1 g! time_cnt [3] $end
$var wire 1 h! time_cnt [2] $end
$var wire 1 i! time_cnt [1] $end
$var wire 1 j! time_cnt [0] $end
$var wire 1 k! step_cnt2 [1] $end
$var wire 1 l! step_cnt2 [0] $end
$var wire 1 m! step_cnt1 [4] $end
$var wire 1 n! step_cnt1 [3] $end
$var wire 1 o! step_cnt1 [2] $end
$var wire 1 p! step_cnt1 [1] $end
$var wire 1 q! step_cnt1 [0] $end
$var wire 1 r! key~combout [2] $end
$var wire 1 s! key~combout [1] $end
$var wire 1 t! key~combout [0] $end
$upscope $end
$upscope $end
$enddefinitions $end
#0
$dumpvars
0!
1"
1#
b0 $
1%
1&
1'
1(
1)
1*
x+
0,
1-
x.
1/
10
11
12
03
04
05
06
07
08
09
0:
1;
0<
0=
1>
1?
0@
1A
0B
1C
0D
0E
0F
0G
0H
0I
1J
0K
0L
0M
0N
0O
0P
0Q
1R
0S
0T
1U
0V
1W
0X
0Y
0Z
0[
0\
0]
0^
0_
0`
1a
0b
1c
0d
0e
0f
0g
0h
0i
0j
0k
0l
0m
0n
1o
0p
0q
1r
1s
0t
1u
0v
1w
0x
1y
0z
1{
0|
0}
1~
0!!
0"!
0#!
1$!
1%!
0&!
0'!
1(!
0)!
0*!
0+!
1,!
0-!
1.!
0/!
00!
11!
02!
03!
04!
15!
06!
07!
08!
09!
0:!
1;!
0<!
1=!
0>!
1?!
0@!
0A!
1B!
0C!
0D!
0E!
0F!
0G!
0H!
1I!
0J!
1K!
0L!
0M!
1N!
0O!
0P!
0Q!
0R!
0S!
1T!
0U!
0V!
0j!
0i!
0h!
0g!
0f!
0e!
0d!
0c!
0b!
0a!
0`!
0_!
0^!
0]!
0\!
0[!
0Z!
0Y!
0X!
0W!
0l!
zk!
0q!
0p!
0o!
0n!
0m!
0t!
0s!
0r!
$end
#500
1!
1P
0+
#1000
0!
0P
1+
#1500
1!
1P
0+
#2000
0!
0P
1+
#2500
1!
1P
0+
#3000
0!
0P
1+
#3500
1!
1P
0+
#4000
0!
0P
1+
#4500
1!
1P
0+
#5000
0!
0P
1+
#5500
1!
1P
0+
#6000
0!
0P
1+
#6500
1!
1P
0+
#7000
0!
0P
1+
#7500
1!
1P
0+
#8000
0!
0P
1+
#8500
1!
1P
0+
#9000
0!
0P
1+
#9500
1!
1P
0+
#10000
0!
0P
1+
#10500
1!
1P
0+
#11000
0!
0P
1+
#11500
1!
1P
0+
#12000
0!
0P
1+
#12500
1!
1P
0+
#13000
0!
0P
1+
#13500
1!
1P
0+
#14000
0!
0P
1+
#14500
1!
1P
0+
#15000
0!
0P
1+
#15500
1!
1P
0+
#16000
0!
0P
1+
#16500
1!
1P
0+
#17000
0!
0P
1+
#17500
1!
1P
0+
#18000
0!
0P
1+
#18500
1!
1P
0+
#19000
0!
0P
1+
#19500
1!
1P
0+
#20000
0!
0P
1+
#20500
1!
1P
0+
#21000
0!
0P
1+
#21500
1!
1P
0+
#22000
0!
0P
1+
#22500
1!
1P
0+
#23000
0!
0P
1+
#23500
1!
1P
0+
#24000
0!
0P
1+
#24500
1!
1P
0+
#25000
0!
0P
1+
#25500
1!
1P
0+
#26000
0!
0P
1+
#26500
1!
1P
0+
#27000
0!
0P
1+
#27500
1!
1P
0+
#28000
0!
0P
1+
#28500
1!
1P
0+
#29000
0!
0P
1+
#29500
1!
1P
0+
#30000
0"
0!
0U
0P
1+
#30500
1!
1P
0+
#31000
0!
0P
1+
#31500
1!
1P
0+
#32000
0!
0P
1+
#32500
1!
1P
0+
#33000
0!
0P
1+
#33500
1!
1P
0+
#34000
0!
0P
1+
#34500
1!
1P
0+
#35000
0!
0P
1+
#35500
1!
1P
0+
#36000
0!
0P
1+
#36500
1!
1P
0+
#37000
0!
0P
1+
#37500
1!
1P
0+
#38000
0!
0P
1+
#38500
1!
1P
0+
#39000
0!
0P
1+
#39500
1!
1P
0+
#40000
1"
0!
1U
0P
1+
#40500
1!
1P
0+
#41000
0!
0P
1+
#41500
1!
1P
0+
#42000
0!
0P
1+
#42500
1!
1P
0+
#43000
0!
0P
1+
#43500
1!
1P
0+
#44000
0!
0P
1+
#44500
1!
1P
0+
#45000
0!
0P
1+
#45500
1!
1P
0+
#46000
0!
0P
1+
#46500
1!
1P
0+
#47000
0!
0P
1+
#47500
1!
1P
0+
#48000
0!
0P
1+
#48500
1!
1P
0+
#49000
0!
0P
1+
#49500
1!
1P
0+
#50000
0!
0P
1+
#50500
1!
1P
0+
#51000
0!
0P
1+
#51500
1!
1P
0+
#52000
0!
0P
1+
#52500
1!
1P
0+
#53000
0!
0P
1+
#53500
1!
1P
0+
#54000
0!
0P
1+
#54500
1!
1P
0+
#55000
0!
0P
1+
#55500
1!
1P
0+
#56000
0!
0P
1+
#56500
1!
1P
0+
#57000
0!
0P
1+
#57500
1!
1P
0+
#58000
0!
0P
1+
#58500
1!
1P
0+
#59000
0!
0P
1+
#59500
1!
1P
0+
#60000
0!
0P
1+
#60500
1!
1P
0+
#61000
0!
0P
1+
#61500
1!
1P
0+
#62000
0!
0P
1+
#62500
1!
1P
0+
#63000
0!
0P
1+
#63500
1!
1P
0+
#64000
0!
0P
1+
#64500
1!
1P
0+
#65000
0!
0P
1+
#65500
1!
1P
0+
#66000
0!
0P
1+
#66500
1!
1P
0+
#67000
0!
0P
1+
#67500
1!
1P
0+
#68000
0!
0P
1+
#68500
1!
1P
0+
#69000
0!
0P
1+
#69500
1!
1P
0+
#70000
0!
0P
1+
#70500
1!
1P
0+
#71000
0!
0P
1+
#71500
1!
1P
0+
#72000
0!
0P
1+
#72500
1!
1P
0+
#73000
0!
0P
1+
#73500
1!
1P
0+
#74000
0!
0P
1+
#74500
1!
1P
0+
#75000
0!
0P
1+
#75500
1!
1P
0+
#76000
0!
0P
1+
#76500
1!
1P
0+
#77000
0!
0P
1+
#77500
1!
1P
0+
#78000
0!
0P
1+
#78500
1!
1P
0+
#79000
0!
0P
1+
#79500
1!
1P
0+
#80000
b1 $
0!
1t!
0P
1+
1e
0W
1f
0T!
0N!
0K!
0B!
0?!
1Z
1T
1I
0C
1g
12!
0;!
#80500
1!
1P
0+
1h
1[
1V
1Q!
1Y
1L
0(
0A
0r
#81000
0!
0P
1+
#81500
1!
1P
0+
#82000
0!
0P
1+
#82500
1!
1P
0+
#83000
0!
0P
1+
#83500
1!
1P
0+
#84000
0!
0P
1+
#84500
1!
1P
0+
#85000
0!
0P
1+
#85500
1!
1P
0+
#86000
0!
0P
1+
#86500
1!
1P
0+
#87000
0!
0P
1+
#87500
1!
1P
0+
#88000
0!
0P
1+
#88500
1!
1P
0+
#89000
0!
0P
1+
#89500
1!
1P
0+
#90000
0!
0P
1+
#90500
1!
1P
0+
#91000
0!
0P
1+
#91500
1!
1P
0+
#92000
0!
0P
1+
#92500
1!
1P
0+
#93000
0!
0P
1+
#93500
1!
1P
0+
#94000
0!
0P
1+
#94500
1!
1P
0+
#95000
0!
0P
1+
#95500
1!
1P
0+
#96000
0!
0P
1+
#96500
1!
1P
0+
#97000
0!
0P
1+
#97500
1!
1P
0+
#98000
0!
0P
1+
#98500
1!
1P
0+
#99000
0!
0P
1+
#99500
1!
1P
0+
#100000
0!
0P
1+
#100500
1!
1P
0+
#101000
0!
0P
1+
#101500
1!
1P
0+
#102000
0!
0P
1+
#102500
1!
1P
0+
#103000
0!
0P
1+
#103500
1!
1P
0+
#104000
0!
0P
1+
#104500
1!
1P
0+
#105000
0!
0P
1+
#105500
1!
1P
0+
#106000
0!
0P
1+
#106500
1!
1P
0+
#107000
0!
0P
1+
#107500
1!
1P
0+
#108000
0!
0P
1+
#108500
1!
1P
0+
#109000
0!
0P
1+
#109500
1!
1P
0+
#110000
0!
0P
1+
#110500
1!
1P
0+
#111000
0!
0P
1+
#111500
1!
1P
0+
#112000
0!
0P
1+
#112500
1!
1P
0+
#113000
0!
0P
1+
#113500
1!
1P
0+
#114000
0!
0P
1+
#114500
1!
1P
0+
#115000
0!
0P
1+
#115500
1!
1P
0+
#116000
0!
0P
1+
#116500
1!
1P
0+
#117000
0!
0P
1+
#117500
1!
1P
0+
#118000
0!
0P
1+
#118500
1!
1P
0+
#119000
0!
0P
1+
#119500
1!
1P
0+
#120000
0!
0P
1+
#120500
1!
1P
0+
#121000
0!
0P
1+
#121500
1!
1P
0+
#122000
0!
0P
1+
#122500
1!
1P
0+
#123000
0!
0P
1+
#123500
1!
1P
0+
#124000
0!
0P
1+
#124500
1!
1P
0+
#125000
0!
0P
1+
#125500
1!
1P
0+
#126000
0!
0P
1+
#126500
1!
1P
0+
#127000
0!
0P
1+
#127500
1!
1P
0+
#128000
0!
0P
1+
#128500
1!
1P
0+
#129000
0!
0P
1+
#129500
1!
1P
0+
#130000
0!
0P
1+
#130500
1!
1P
0+
#131000
0!
0P
1+
#131500
1!
1P
0+
#132000
0!
0P
1+
#132500
1!
1P
0+
#133000
0!
0P
1+
#133500
1!
1P
0+
#134000
0!
0P
1+
#134500
1!
1P
0+
#135000
0!
0P
1+
#135500
1!
1P
0+
#136000
0!
0P
1+
#136500
1!
1P
0+
#137000
0!
0P
1+
#137500
1!
1P
0+
#138000
0!
0P
1+
#138500
1!
1P
0+
#139000
0!
0P
1+
#139500
1!
1P
0+
#140000
0!
0P
1+
#140500
1!
1P
0+
#141000
0!
0P
1+
#141500
1!
1P
0+
#142000
0!
0P
1+
#142500
1!
1P
0+
#143000
0!
0P
1+
#143500
1!
1P
0+
#144000
0!
0P
1+
#144500
1!
1P
0+
#145000
0!
0P
1+
#145500
1!
1P
0+
#146000
0!
0P
1+
#146500
1!
1P
0+
#147000
0!
0P
1+
#147500
1!
1P
0+
#148000
0!
0P
1+
#148500
1!
1P
0+
#149000
0!
0P
1+
#149500
1!
1P
0+
#150000
0!
0P
1+
#150500
1!
1P
0+
#151000
0!
0P
1+
#151500
1!
1P
0+
#152000
0!
0P
1+
#152500
1!
1P
0+
#153000
0!
0P
1+
#153500
1!
1P
0+
#154000
0!
0P
1+
#154500
1!
1P
0+
#155000
0!
0P
1+
#155500
1!
1P
0+
#156000
0!
0P
1+
#156500
1!
1P
0+
#157000
0!
0P
1+
#157500
1!
1P
0+
#158000
0!
0P
1+
#158500
1!
1P
0+
#159000
0!
0P
1+
#159500
1!
1P
0+
#160000
0!
0P
1+
#160500
1!
1P
0+
#161000
0!
0P
1+
#161500
1!
1P
0+
#162000
0!
0P
1+
#162500
1!
1P
0+
#163000
0!
0P
1+
#163500
1!
1P
0+
#164000
0!
0P
1+
#164500
1!
1P
0+
#165000
0!
0P
1+
#165500
1!
1P
0+
#166000
0!
0P
1+
#166500
1!
1P
0+
#167000
0!
0P
1+
#167500
1!
1P
0+
#168000
0!
0P
1+
#168500
1!
1P
0+
#169000
0!
0P
1+
#169500
1!
1P
0+
#170000
0!
0P
1+
#170500
1!
1P
0+
#171000
0!
0P
1+
#171500
1!
1P
0+
#172000
0!
0P
1+
#172500
1!
1P
0+
#173000
0!
0P
1+
#173500
1!
1P
0+
#174000
0!
0P
1+
#174500
1!
1P
0+
#175000
0!
0P
1+
#175500
1!
1P
0+
#176000
0!
0P
1+
#176500
1!
1P
0+
#177000
0!
0P
1+
#177500
1!
1P
0+
#178000
0!
0P
1+
#178500
1!
1P
0+
#179000
0!
0P
1+
#179500
1!
1P
0+
#180000
0!
0P
1+
#180500
1!
1P
0+
#181000
0!
0P
1+
#181500
1!
1P
0+
#182000
0!
0P
1+
#182500
1!
1P
0+
#183000
0!
0P
1+
#183500
1!
1P
0+
#184000
0!
0P
1+
#184500
1!
1P
0+
#185000
0!
0P
1+
#185500
1!
1P
0+
#186000
0!
0P
1+
#186500
1!
1P
0+
#187000
0!
0P
1+
#187500
1!
1P
0+
#188000
0!
0P
1+
#188500
1!
1P
0+
#189000
0!
0P
1+
#189500
1!
1P
0+
#190000
0!
0P
1+
#190500
1!
1P
0+
#191000
0!
0P
1+
#191500
1!
1P
0+
#192000
0!
0P
1+
#192500
1!
1P
0+
#193000
0!
0P
1+
#193500
1!
1P
0+
#194000
0!
0P
1+
#194500
1!
1P
0+
#195000
0!
0P
1+
#195500
1!
1P
0+
#196000
0!
0P
1+
#196500
1!
1P
0+
#197000
0!
0P
1+
#197500
1!
1P
0+
#198000
0!
0P
1+
#198500
1!
1P
0+
#199000
0!
0P
1+
#199500
1!
1P
0+
#200000
b11 $
b10 $
0!
0t!
1s!
0P
1+
0e
1\
1i
0f
0i
1f
1]
1l
0g
0l
1g
#200500
1!
1P
0+
1^
0]
0\
0*
1]
#201000
0!
0P
1+
#201500
1!
1P
0+
#202000
0!
0P
1+
#202500
1!
1P
0+
#203000
0!
0P
1+
#203500
1!
1P
0+
#204000
0!
0P
1+
#204500
1!
1P
0+
#205000
0!
0P
1+
#205500
1!
1P
0+
#206000
0!
0P
1+
#206500
1!
1P
0+
#207000
0!
0P
1+
#207500
1!
1P
0+
#208000
0!
0P
1+
#208500
1!
1P
0+
#209000
0!
0P
1+
#209500
1!
1P
0+
#210000
0!
0P
1+
#210500
1!
1P
0+
#211000
0!
0P
1+
#211500
1!
1P
0+
#212000
0!
0P
1+
#212500
1!
1P
0+
#213000
0!
0P
1+
#213500
1!
1P
0+
#214000
0!
0P
1+
#214500
1!
1P
0+
#215000
0!
0P
1+
#215500
1!
1P
0+
#216000
0!
0P
1+
#216500
1!
1P
0+
#217000
0!
0P
1+
#217500
1!
1P
0+
#218000
0!
0P
1+
#218500
1!
1P
0+
#219000
0!
0P
1+
#219500
1!
1P
0+
#220000
0!
0P
1+
#220500
1!
1P
0+
#221000
0!
0P
1+
#221500
1!
1P
0+
#222000
0!
0P
1+
#222500
1!
1P
0+
#223000
0!
0P
1+
#223500
1!
1P
0+
#224000
0!
0P
1+
#224500
1!
1P
0+
#225000
0!
0P
1+
#225500
1!
1P
0+
#226000
0!
0P
1+
#226500
1!
1P
0+
#227000
0!
0P
1+
#227500
1!
1P
0+
#228000
0!
0P
1+
#228500
1!
1P
0+
#229000
0!
0P
1+
#229500
1!
1P
0+
#230000
0!
0P
1+
#230500
1!
1P
0+
#231000
0!
0P
1+
#231500
1!
1P
0+
#232000
0!
0P
1+
#232500
1!
1P
0+
#233000
0!
0P
1+
#233500
1!
1P
0+
#234000
0!
0P
1+
#234500
1!
1P
0+
#235000
0!
0P
1+
#235500
1!
1P
0+
#236000
0!
0P
1+
#236500
1!
1P
0+
#237000
0!
0P
1+
#237500
1!
1P
0+
#238000
0!
0P
1+
#238500
1!
1P
0+
#239000
0!
0P
1+
#239500
1!
1P
0+
#240000
0!
0P
1+
#240500
1!
1P
0+
#241000
0!
0P
1+
#241500
1!
1P
0+
#242000
0!
0P
1+
#242500
1!
1P
0+
#243000
0!
0P
1+
#243500
1!
1P
0+
#244000
0!
0P
1+
#244500
1!
1P
0+
#245000
0!
0P
1+
#245500
1!
1P
0+
#246000
0!
0P
1+
#246500
1!
1P
0+
#247000
0!
0P
1+
#247500
1!
1P
0+
#248000
0!
0P
1+
#248500
1!
1P
0+
#249000
0!
0P
1+
#249500
1!
1P
0+
#250000
0!
0P
1+
#250500
1!
1P
0+
#251000
0!
0P
1+
#251500
1!
1P
0+
#252000
0!
0P
1+
#252500
1!
1P
0+
#253000
0!
0P
1+
#253500
1!
1P
0+
#254000
0!
0P
1+
#254500
1!
1P
0+
#255000
0!
0P
1+
#255500
1!
1P
0+
#256000
0!
0P
1+
#256500
1!
1P
0+
#257000
0!
0P
1+
#257500
1!
1P
0+
#258000
0!
0P
1+
#258500
1!
1P
0+
#259000
0!
0P
1+
#259500
1!
1P
0+
#260000
0!
0P
1+
#260500
1!
1P
0+
#261000
0!
0P
1+
#261500
1!
1P
0+
#262000
0!
0P
1+
#262500
1!
1P
0+
#263000
0!
0P
1+
#263500
1!
1P
0+
#264000
0!
0P
1+
#264500
1!
1P
0+
#265000
0!
0P
1+
#265500
1!
1P
0+
#266000
0!
0P
1+
#266500
1!
1P
0+
#267000
0!
0P
1+
#267500
1!
1P
0+
#268000
0!
0P
1+
#268500
1!
1P
0+
#269000
0!
0P
1+
#269500
1!
1P
0+
#270000
0!
0P
1+
#270500
1!
1P
0+
#271000
0!
0P
1+
#271500
1!
1P
0+
#272000
0!
0P
1+
#272500
1!
1P
0+
#273000
0!
0P
1+
#273500
1!
1P
0+
#274000
0!
0P
1+
#274500
1!
1P
0+
#275000
0!
0P
1+
#275500
1!
1P
0+
#276000
0!
0P
1+
#276500
1!
1P
0+
#277000
0!
0P
1+
#277500
1!
1P
0+
#278000
0!
0P
1+
#278500
1!
1P
0+
#279000
0!
0P
1+
#279500
1!
1P
0+
#280000
0!
0P
1+
#280500
1!
1P
0+
#281000
0!
0P
1+
#281500
1!
1P
0+
#282000
0!
0P
1+
#282500
1!
1P
0+
#283000
0!
0P
1+
#283500
1!
1P
0+
#284000
0!
0P
1+
#284500
1!
1P
0+
#285000
0!
0P
1+
#285500
1!
1P
0+
#286000
0!
0P
1+
#286500
1!
1P
0+
#287000
0!
0P
1+
#287500
1!
1P
0+
#288000
0!
0P
1+
#288500
1!
1P
0+
#289000
0!
0P
1+
#289500
1!
1P
0+
#290000
0!
0P
1+
#290500
1!
1P
0+
#291000
0!
0P
1+
#291500
1!
1P
0+
#292000
0!
0P
1+
#292500
1!
1P
0+
#293000
0!
0P
1+
#293500
1!
1P
0+
#294000
0!
0P
1+
#294500
1!
1P
0+
#295000
0!
0P
1+
#295500
1!
1P
0+
#296000
0!
0P
1+
#296500
1!
1P
0+
#297000
0!
0P
1+
#297500
1!
1P
0+
#298000
0!
0P
1+
#298500
1!
1P
0+
#299000
0!
0P
1+
#299500
1!
1P
0+
#300000
0!
0P
1+
#300500
1!
1P
0+
#301000
0!
0P
1+
#301500
1!
1P
0+
#302000
0!
0P
1+
#302500
1!
1P
0+
#303000
0!
0P
1+
#303500
1!
1P
0+
#304000
0!
0P
1+
#304500
1!
1P
0+
#305000
0!
0P
1+
#305500
1!
1P
0+
#306000
0!
0P
1+
#306500
1!
1P
0+
#307000
0!
0P
1+
#307500
1!
1P
0+
#308000
0!
0P
1+
#308500
1!
1P
0+
#309000
0!
0P
1+
#309500
1!
1P
0+
#310000
0!
0P
1+
#310500
1!
1P
0+
#311000
0!
0P
1+
#311500
1!
1P
0+
#312000
0!
0P
1+
#312500
1!
1P
0+
#313000
0!
0P
1+
#313500
1!
1P
0+
#314000
0!
0P
1+
#314500
1!
1P
0+
#315000
0!
0P
1+
#315500
1!
1P
0+
#316000
0!
0P
1+
#316500
1!
1P
0+
#317000
0!
0P
1+
#317500
1!
1P
0+
#318000
0!
0P
1+
#318500
1!
1P
0+
#319000
0!
0P
1+
#319500
1!
1P
0+
#320000
0!
0P
1+
#320500
1!
1P
0+
#321000
0!
0P
1+
#321500
1!
1P
0+
#322000
0!
0P
1+
#322500
1!
1P
0+
#323000
0!
0P
1+
#323500
1!
1P
0+
#324000
0!
0P
1+
#324500
1!
1P
0+
#325000
0!
0P
1+
#325500
1!
1P
0+
#326000
0!
0P
1+
#326500
1!
1P
0+
#327000
0!
0P
1+
#327500
1!
1P
0+
#328000
0!
0P
1+
#328500
1!
1P
0+
#329000
0!
0P
1+
#329500
1!
1P
0+
#330000
0!
0P
1+
#330500
1!
1P
0+
#331000
0!
0P
1+
#331500
1!
1P
0+
#332000
0!
0P
1+
#332500
1!
1P
0+
#333000
0!
0P
1+
#333500
1!
1P
0+
#334000
0!
0P
1+
#334500
1!
1P
0+
#335000
0!
0P
1+
#335500
1!
1P
0+
#336000
0!
0P
1+
#336500
1!
1P
0+
#337000
0!
0P
1+
#337500
1!
1P
0+
#338000
0!
0P
1+
#338500
1!
1P
0+
#339000
0!
0P
1+
#339500
1!
1P
0+
#340000
0!
0P
1+
#340500
1!
1P
0+
#341000
0!
0P
1+
#341500
1!
1P
0+
#342000
0!
0P
1+
#342500
1!
1P
0+
#343000
0!
0P
1+
#343500
1!
1P
0+
#344000
0!
0P
1+
#344500
1!
1P
0+
#345000
0!
0P
1+
#345500
1!
1P
0+
#346000
0!
0P
1+
#346500
1!
1P
0+
#347000
0!
0P
1+
#347500
1!
1P
0+
#348000
0!
0P
1+
#348500
1!
1P
0+
#349000
0!
0P
1+
#349500
1!
1P
0+
#350000
0!
0P
1+
#350500
1!
1P
0+
#351000
0!
0P
1+
#351500
1!
1P
0+
#352000
0!
0P
1+
#352500
1!
1P
0+
#353000
0!
0P
1+
#353500
1!
1P
0+
#354000
0!
0P
1+
#354500
1!
1P
0+
#355000
0!
0P
1+
#355500
1!
1P
0+
#356000
0!
0P
1+
#356500
1!
1P
0+
#357000
0!
0P
1+
#357500
1!
1P
0+
#358000
0!
0P
1+
#358500
1!
1P
0+
#359000
0!
0P
1+
#359500
1!
1P
0+
#360000
0!
0P
1+
#360500
1!
1P
0+
#361000
0!
0P
1+
#361500
1!
1P
0+
#362000
0!
0P
1+
#362500
1!
1P
0+
#363000
0!
0P
1+
#363500
1!
1P
0+
#364000
0!
0P
1+
#364500
1!
1P
0+
#365000
0!
0P
1+
#365500
1!
1P
0+
#366000
0!
0P
1+
#366500
1!
1P
0+
#367000
0!
0P
1+
#367500
1!
1P
0+
#368000
0!
0P
1+
#368500
1!
1P
0+
#369000
0!
0P
1+
#369500
1!
1P
0+
#370000
0!
0P
1+
#370500
1!
1P
0+
#371000
0!
0P
1+
#371500
1!
1P
0+
#372000
0!
0P
1+
#372500
1!
1P
0+
#373000
0!
0P
1+
#373500
1!
1P
0+
#374000
0!
0P
1+
#374500
1!
1P
0+
#375000
0!
0P
1+
#375500
1!
1P
0+
#376000
0!
0P
1+
#376500
1!
1P
0+
#377000
0!
0P
1+
#377500
1!
1P
0+
#378000
0!
0P
1+
#378500
1!
1P
0+
#379000
0!
0P
1+
#379500
1!
1P
0+
#380000
0!
0P
1+
#380500
1!
1P
0+
#381000
0!
0P
1+
#381500
1!
1P
0+
#382000
0!
0P
1+
#382500
1!
1P
0+
#383000
0!
0P
1+
#383500
1!
1P
0+
#384000
0!
0P
1+
#384500
1!
1P
0+
#385000
0!
0P
1+
#385500
1!
1P
0+
#386000
0!
0P
1+
#386500
1!
1P
0+
#387000
0!
0P
1+
#387500
1!
1P
0+
#388000
0!
0P
1+
#388500
1!
1P
0+
#389000
0!
0P
1+
#389500
1!
1P
0+
#390000
0!
0P
1+
#390500
1!
1P
0+
#391000
0!
0P
1+
#391500
1!
1P
0+
#392000
0!
0P
1+
