Verilog/washing_machine/washing_machine/simulation/qsim/washing_machine.msim.vcd
$comment
	File created using the following command:
		vcd file washing_machine.msim.vcd -direction
$end
$date
	Mon May 07 16:30:46 2018
$end
$version
	ModelSim Version 10.1d
$end
$timescale
	1ps
$end
$scope module washing_machine_vlg_vec_tst $end
$var reg 1 ! CLK $end
$var reg 1 " fangshui_signal $end
$var reg 1 # key_p $end
$var reg 1 $ key_s $end
$var reg 1 % key_w $end
$var reg 1 & RST_N $end
$var wire 1 ' led_fangshui $end
$var wire 1 ( led_motor_f $end
$var wire 1 ) led_motor_o $end
$var wire 1 * led_start $end
$var wire 1 + led_tuoshui $end
$var wire 1 , led_zhushui $end
$var wire 1 - sampler $end
$scope module i1 $end
$var wire 1 . gnd $end
$var wire 1 / vcc $end
$var wire 1 0 unknown $end
$var tri1 1 1 devclrn $end
$var tri1 1 2 devpor $end
$var tri1 1 3 devoe $end
$var wire 1 4 inst6|time_cnt[0]~21_combout $end
$var wire 1 5 inst6|time_cnt[1]~23_combout $end
$var wire 1 6 inst6|time_cnt[8]~37_combout $end
$var wire 1 7 inst6|time_cnt[9]~46_combout $end
$var wire 1 8 inst6|time_cnt[10]~48_combout $end
$var wire 1 9 inst6|time_cnt[11]~50_combout $end
$var wire 1 : inst6|time_cnt[12]~52_combout $end
$var wire 1 ; inst6|time_cnt[16]~60_combout $end
$var wire 1 < inst6|Add1~0_combout $end
$var wire 1 = inst2|time_count[0]~10_combout $end
$var wire 1 > inst2|time_count[0]~11 $end
$var wire 1 ? inst2|time_count[1]~12_combout $end
$var wire 1 @ inst2|time_count[1]~13 $end
$var wire 1 A inst2|time_count[2]~14_combout $end
$var wire 1 B inst2|time_count[2]~15 $end
$var wire 1 C inst2|time_count[3]~16_combout $end
$var wire 1 D inst2|time_count[3]~17 $end
$var wire 1 E inst2|time_count[4]~18_combout $end
$var wire 1 F inst2|time_count[4]~19 $end
$var wire 1 G inst2|time_count[5]~20_combout $end
$var wire 1 H inst2|time_count[5]~21 $end
$var wire 1 I inst2|time_count[6]~22_combout $end
$var wire 1 J inst2|time_count[6]~23 $end
$var wire 1 K inst2|time_count[7]~24_combout $end
$var wire 1 L inst2|time_count[7]~25 $end
$var wire 1 M inst2|time_count[8]~26_combout $end
$var wire 1 N inst2|time_count[8]~27 $end
$var wire 1 O inst2|time_count[9]~28_combout $end
$var wire 1 P inst1|time_count[0]~10_combout $end
$var wire 1 Q inst1|time_count[0]~11 $end
$var wire 1 R inst1|time_count[1]~12_combout $end
$var wire 1 S inst1|time_count[1]~13 $end
$var wire 1 T inst1|time_count[2]~14_combout $end
$var wire 1 U inst1|time_count[2]~15 $end
$var wire 1 V inst1|time_count[3]~16_combout $end
$var wire 1 W inst1|time_count[3]~17 $end
$var wire 1 X inst1|time_count[4]~18_combout $end
$var wire 1 Y inst1|time_count[4]~19 $end
$var wire 1 Z inst1|time_count[5]~20_combout $end
$var wire 1 [ inst1|time_count[5]~21 $end
$var wire 1 \ inst1|time_count[6]~22_combout $end
$var wire 1 ] inst1|time_count[6]~23 $end
$var wire 1 ^ inst1|time_count[7]~24_combout $end
$var wire 1 _ inst1|time_count[7]~25 $end
$var wire 1 ` inst1|time_count[8]~26_combout $end
$var wire 1 a inst1|time_count[8]~27 $end
$var wire 1 b inst1|time_count[9]~28_combout $end
$var wire 1 c inst|time_count[0]~10_combout $end
$var wire 1 d inst|time_count[0]~11 $end
$var wire 1 e inst|time_count[1]~12_combout $end
$var wire 1 f inst|time_count[1]~13 $end
$var wire 1 g inst|time_count[2]~14_combout $end
$var wire 1 h inst|time_count[2]~15 $end
$var wire 1 i inst|time_count[3]~16_combout $end
$var wire 1 j inst|time_count[3]~17 $end
$var wire 1 k inst|time_count[4]~18_combout $end
$var wire 1 l inst|time_count[4]~19 $end
$var wire 1 m inst|time_count[5]~20_combout $end
$var wire 1 n inst|time_count[5]~21 $end
$var wire 1 o inst|time_count[6]~22_combout $end
$var wire 1 p inst|time_count[6]~23 $end
$var wire 1 q inst|time_count[7]~24_combout $end
$var wire 1 r inst|time_count[7]~25 $end
$var wire 1 s inst|time_count[8]~26_combout $end
$var wire 1 t inst|time_count[8]~27 $end
$var wire 1 u inst|time_count[9]~28_combout $end
$var wire 1 v inst6|STATE.END~regout $end
$var wire 1 w inst6|LessThan3~0_combout $end
$var wire 1 x inst6|LessThan3~4_combout $end
$var wire 1 y inst6|Selector30~0_combout $end
$var wire 1 z inst6|Selector31~1_combout $end
$var wire 1 { inst6|STATE.FANGSHUI~regout $end
$var wire 1 | inst6|Selector32~0_combout $end
$var wire 1 } inst6|Selector33~0_combout $end
$var wire 1 ~ inst6|Selector27~1_combout $end
$var wire 1 !! inst6|Selector27~2_combout $end
$var wire 1 "! inst6|time_cnt[14]~41_combout $end
$var wire 1 #! inst6|time_cnt[14]~42_combout $end
$var wire 1 $! inst6|time_cnt[14]~43_combout $end
$var wire 1 %! inst6|Add1~2_combout $end
$var wire 1 &! inst6|step_cnt2[0]~1_combout $end
$var wire 1 '! inst6|Selector25~1_combout $end
$var wire 1 (! inst2|key_press~regout $end
$var wire 1 )! inst1|key_press~regout $end
$var wire 1 *! inst|key_press~regout $end
$var wire 1 +! inst2|key_press~0_combout $end
$var wire 1 ,! inst1|key_press~0_combout $end
$var wire 1 -! inst|key_press~0_combout $end
$var wire 1 .! inst2|Mux2~0_combout $end
$var wire 1 /! inst2|Decoder0~0_combout $end
$var wire 1 0! inst2|LessThan0~0_combout $end
$var wire 1 1! inst2|LessThan0~1_combout $end
$var wire 1 2! inst2|s_now~regout $end
$var wire 1 3! inst2|s_last~regout $end
$var wire 1 4! inst2|Mux2~1_combout $end
$var wire 1 5! inst2|Mux2~2_combout $end
$var wire 1 6! inst1|Mux2~0_combout $end
$var wire 1 7! inst1|Decoder0~0_combout $end
$var wire 1 8! inst1|LessThan0~0_combout $end
$var wire 1 9! inst1|LessThan0~1_combout $end
$var wire 1 :! inst1|s_now~regout $end
$var wire 1 ;! inst1|s_last~regout $end
$var wire 1 <! inst1|Mux2~1_combout $end
$var wire 1 =! inst1|Mux2~2_combout $end
$var wire 1 >! inst|Mux2~0_combout $end
$var wire 1 ?! inst|Decoder0~0_combout $end
$var wire 1 @! inst|LessThan0~0_combout $end
$var wire 1 A! inst|LessThan0~1_combout $end
$var wire 1 B! inst|s_now~regout $end
$var wire 1 C! inst|s_last~regout $end
$var wire 1 D! inst|Mux2~1_combout $end
$var wire 1 E! inst|Mux2~2_combout $end
$var wire 1 F! inst2|Mux1~8_combout $end
$var wire 1 G! inst1|Mux1~8_combout $end
$var wire 1 H! inst|Mux1~8_combout $end
$var wire 1 I! inst2|s_now~0_combout $end
$var wire 1 J! inst1|s_now~0_combout $end
$var wire 1 K! inst|s_now~0_combout $end
$var wire 1 L! key_p~combout $end
$var wire 1 M! key_w~combout $end
$var wire 1 N! key_s~combout $end
$var wire 1 O! CLK~combout $end
$var wire 1 P! inst5|key_rst~0_combout $end
$var wire 1 Q! RST_N~combout $end
$var wire 1 R! inst5|key_rst~regout $end
$var wire 1 S! inst5|Mux1~0_combout $end
$var wire 1 T! inst5|Mux2~0_combout $end
$var wire 1 U! inst5|key_value[2]~3_combout $end
$var wire 1 V! inst5|key_value[2]~2_combout $end
$var wire 1 W! inst5|Equal1~0_combout $end
$var wire 1 X! inst6|time_cnt[0]~22 $end
$var wire 1 Y! inst6|time_cnt[1]~24 $end
$var wire 1 Z! inst6|time_cnt[2]~26 $end
$var wire 1 [! inst6|time_cnt[3]~28 $end
$var wire 1 \! inst6|time_cnt[4]~30 $end
$var wire 1 ]! inst6|time_cnt[5]~32 $end
$var wire 1 ^! inst6|time_cnt[6]~34 $end
$var wire 1 _! inst6|time_cnt[7]~36 $end
$var wire 1 `! inst6|time_cnt[8]~38 $end
$var wire 1 a! inst6|time_cnt[9]~47 $end
$var wire 1 b! inst6|time_cnt[10]~49 $end
$var wire 1 c! inst6|time_cnt[11]~51 $end
$var wire 1 d! inst6|time_cnt[12]~53 $end
$var wire 1 e! inst6|time_cnt[13]~54_combout $end
$var wire 1 f! inst6|Selector23~0_combout $end
$var wire 1 g! inst5|Equal4~0_combout $end
$var wire 1 h! fangshui_signal~combout $end
$var wire 1 i! inst6|Selector23~1_combout $end
$var wire 1 j! inst6|STATE.IDLE~0_combout $end
$var wire 1 k! inst6|STATE.IDLE~regout $end
$var wire 1 l! inst6|Selector28~0_combout $end
$var wire 1 m! inst6|Add1~1 $end
$var wire 1 n! inst6|Add1~3_combout $end
$var wire 1 o! inst6|Add1~5_combout $end
$var wire 1 p! inst5|Equal3~0_combout $end
$var wire 1 q! inst6|Selector23~2_combout $end
$var wire 1 r! inst6|Selector23~3_combout $end
$var wire 1 s! inst6|STATE.START~regout $end
$var wire 1 t! inst6|Selector24~0_combout $end
$var wire 1 u! inst6|time_cnt[14]~20_combout $end
$var wire 1 v! inst6|Selector24~1_combout $end
$var wire 1 w! inst6|STATE.XIDI~regout $end
$var wire 1 x! inst6|time_cnt[3]~27_combout $end
$var wire 1 y! inst6|time_cnt[4]~29_combout $end
$var wire 1 z! inst6|time_cnt[5]~31_combout $end
$var wire 1 {! inst6|LessThan2~4_combout $end
$var wire 1 |! inst6|LessThan2~5_combout $end
$var wire 1 }! inst6|time_cnt[13]~55 $end
$var wire 1 ~! inst6|time_cnt[14]~57 $end
$var wire 1 !" inst6|time_cnt[15]~59 $end
$var wire 1 "" inst6|time_cnt[16]~61 $end
$var wire 1 #" inst6|time_cnt[17]~62_combout $end
$var wire 1 $" inst6|time_cnt[17]~63 $end
$var wire 1 %" inst6|time_cnt[18]~64_combout $end
$var wire 1 &" inst6|time_cnt[18]~65 $end
$var wire 1 '" inst6|time_cnt[19]~66_combout $end
$var wire 1 (" inst6|LessThan3~2_combout $end
$var wire 1 )" inst6|LessThan3~6_combout $end
$var wire 1 *" inst6|time_cnt[14]~44_combout $end
$var wire 1 +" inst6|Selector27~0_combout $end
$var wire 1 ," inst6|Selector25~0_combout $end
$var wire 1 -" inst6|Selector26~0_combout $end
$var wire 1 ." inst6|Selector26~1_combout $end
$var wire 1 /" inst6|STATE.TUOSHUI~regout $end
$var wire 1 0" inst6|time_cnt[14]~45_combout $end
$var wire 1 1" inst6|time_cnt[2]~25_combout $end
$var wire 1 2" inst6|LessThan1~0_combout $end
$var wire 1 3" inst6|step_cnt2[0]~0_combout $end
$var wire 1 4" inst6|Selector60~0_combout $end
$var wire 1 5" inst6|step_cnt2[0]~2_combout $end
$var wire 1 6" inst6|step_cnt1[0]~0_combout $end
$var wire 1 7" inst6|step_cnt1[0]~1_combout $end
$var wire 1 8" inst6|Add1~4 $end
$var wire 1 9" inst6|Add1~7 $end
$var wire 1 :" inst6|Add1~8_combout $end
$var wire 1 ;" inst6|Add1~10_combout $end
$var wire 1 <" inst6|Add1~6_combout $end
$var wire 1 =" inst6|Add1~11_combout $end
$var wire 1 >" inst6|LessThan0~0_combout $end
$var wire 1 ?" inst6|Selector31~0_combout $end
$var wire 1 @" inst6|Add1~9 $end
$var wire 1 A" inst6|Add1~12_combout $end
$var wire 1 B" inst6|step_cnt1[4]~2_combout $end
$var wire 1 C" inst6|time_cnt[6]~33_combout $end
$var wire 1 D" inst6|LessThan1~1_combout $end
$var wire 1 E" inst6|time_cnt[14]~39_combout $end
$var wire 1 F" inst6|time_cnt[14]~40_combout $end
$var wire 1 G" inst6|time_cnt[14]~56_combout $end
$var wire 1 H" inst6|time_cnt[15]~58_combout $end
$var wire 1 I" inst6|LessThan3~1_combout $end
$var wire 1 J" inst6|time_cnt[7]~35_combout $end
$var wire 1 K" inst6|LessThan3~3_combout $end
$var wire 1 L" inst6|LessThan3~5_combout $end
$var wire 1 M" inst6|Selector28~1_combout $end
$var wire 1 N" inst6|Selector28~2_combout $end
$var wire 1 O" inst6|led_start~regout $end
$var wire 1 P" inst6|led_zhushui~0_combout $end
$var wire 1 Q" inst6|led_zhushui~1_combout $end
$var wire 1 R" inst6|led_zhushui~2_combout $end
$var wire 1 S" inst6|led_zhushui~regout $end
$var wire 1 T" inst6|Selector30~1_combout $end
$var wire 1 U" inst6|led_motor_f~0_combout $end
$var wire 1 V" inst6|led_motor_f~regout $end
$var wire 1 W" inst6|led_motor_o~0_combout $end
$var wire 1 X" inst6|led_motor_o~regout $end
$var wire 1 Y" inst6|led_fangshui~0_combout $end
$var wire 1 Z" inst6|led_fangshui~regout $end
$var wire 1 [" inst6|LessThan2~6_combout $end
$var wire 1 \" inst6|led_tuoshui~0_combout $end
$var wire 1 ]" inst6|led_tuoshui~regout $end
$var wire 1 ^" inst6|time_cnt [19] $end
$var wire 1 _" inst6|time_cnt [18] $end
$var wire 1 `" inst6|time_cnt [17] $end
$var wire 1 a" inst6|time_cnt [16] $end
$var wire 1 b" inst6|time_cnt [15] $end
$var wire 1 c" inst6|time_cnt [14] $end
$var wire 1 d" inst6|time_cnt [13] $end
$var wire 1 e" inst6|time_cnt [12] $end
$var wire 1 f" inst6|time_cnt [11] $end
$var wire 1 g" inst6|time_cnt [10] $end
$var wire 1 h" inst6|time_cnt [9] $end
$var wire 1 i" inst6|time_cnt [8] $end
$var wire 1 j" inst6|time_cnt [7] $end
$var wire 1 k" inst6|time_cnt [6] $end
$var wire 1 l" inst6|time_cnt [5] $end
$var wire 1 m" inst6|time_cnt [4] $end
$var wire 1 n" inst6|time_cnt [3] $end
$var wire 1 o" inst6|time_cnt [2] $end
$var wire 1 p" inst6|time_cnt [1] $end
$var wire 1 q" inst6|time_cnt [0] $end
$var wire 1 r" inst6|step_cnt2 [1] $end
$var wire 1 s" inst6|step_cnt2 [0] $end
$var wire 1 t" inst6|step_cnt1 [4] $end
$var wire 1 u" inst6|step_cnt1 [3] $end
$var wire 1 v" inst6|step_cnt1 [2] $end
$var wire 1 w" inst6|step_cnt1 [1] $end
$var wire 1 x" inst6|step_cnt1 [0] $end
$var wire 1 y" inst5|key_value [2] $end
$var wire 1 z" inst5|key_value [1] $end
$var wire 1 {" inst5|key_value [0] $end
$var wire 1 |" inst5|key_temp [2] $end
$var wire 1 }" inst5|key_temp [1] $end
$var wire 1 ~" inst5|key_temp [0] $end
$var wire 1 !# inst|time_count [9] $end
$var wire 1 "# inst|time_count [8] $end
$var wire 1 ## inst|time_count [7] $end
$var wire 1 $# inst|time_count [6] $end
$var wire 1 %# inst|time_count [5] $end
$var wire 1 &# inst|time_count [4] $end
$var wire 1 '# inst|time_count [3] $end
$var wire 1 (# inst|time_count [2] $end
$var wire 1 )# inst|time_count [1] $end
$var wire 1 *# inst|time_count [0] $end
$var wire 1 +# inst|step_cnt [2] $end
$var wire 1 ,# inst|step_cnt [1] $end
$var wire 1 -# inst|step_cnt [0] $end
$var wire 1 .# inst1|time_count [9] $end
$var wire 1 /# inst1|time_count [8] $end
$var wire 1 0# inst1|time_count [7] $end
$var wire 1 1# inst1|time_count [6] $end
$var wire 1 2# inst1|time_count [5] $end
$var wire 1 3# inst1|time_count [4] $end
$var wire 1 4# inst1|time_count [3] $end
$var wire 1 5# inst1|time_count [2] $end
$var wire 1 6# inst1|time_count [1] $end
$var wire 1 7# inst1|time_count [0] $end
$var wire 1 8# inst2|time_count [9] $end
$var wire 1 9# inst2|time_count [8] $end
$var wire 1 :# inst2|time_count [7] $end
$var wire 1 ;# inst2|time_count [6] $end
$var wire 1 <# inst2|time_count [5] $end
$var wire 1 =# inst2|time_count [4] $end
$var wire 1 ># inst2|time_count [3] $end
$var wire 1 ?# inst2|time_count [2] $end
$var wire 1 @# inst2|time_count [1] $end
$var wire 1 A# inst2|time_count [0] $end
$var wire 1 B# inst2|step_cnt [2] $end
$var wire 1 C# inst2|step_cnt [1] $end
$var wire 1 D# inst2|step_cnt [0] $end
$var wire 1 E# inst1|step_cnt [2] $end
$var wire 1 F# inst1|step_cnt [1] $end
$var wire 1 G# inst1|step_cnt [0] $end
$upscope $end
$upscope $end
$enddefinitions $end
#0
$dumpvars
0!
1"
1#
1$
1%
1&
1'
1(
1)
1*
1+
1,
x-
0.
1/
x0
11
12
13
14
05
06
07
08
09
0:
0;
1<
1=
0>
0?
1@
0A
0B
0C
1D
0E
0F
0G
1H
0I
0J
0K
1L
0M
0N
0O
1P
0Q
0R
1S
0T
0U
0V
1W
0X
0Y
0Z
1[
0\
0]
0^
1_
0`
0a
0b
1c
0d
0e
1f
0g
0h
0i
1j
0k
0l
0m
1n
0o
0p
0q
1r
0s
0t
0u
0v
1w
1x
1y
1z
0{
1|
1}
0~
0!!
0"!
0#!
0$!
0%!
0&!
0'!
0(!
0)!
0*!
0+!
0,!
0-!
0.!
0/!
10!
11!
02!
03!
04!
05!
06!
07!
18!
19!
0:!
0;!
0<!
0=!
0>!
0?!
1@!
1A!
0B!
0C!
0D!
0E!
0F!
0G!
0H!
0I!
0J!
0K!
1L!
1M!
1N!
0O!
0P!
1Q!
0R!
0S!
1T!
1U!
0V!
0W!
0X!
1Y!
0Z!
1[!
0\!
1]!
0^!
1_!
0`!
1a!
0b!
1c!
0d!
0e!
0f!
0g!
1h!
0i!
0j!
0k!
0l!
0m!
0n!
0o!
1p!
0q!
0r!
0s!
0t!
0u!
0v!
0w!
0x!
0y!
0z!
0{!
0|!
1}!
0~!
1!"
0""
0#"
1$"
0%"
0&"
0'"
1("
1)"
0*"
0+"
1,"
0-"
0."
0/"
10"
01"
12"
03"
14"
05"
06"
17"
18"
09"
0:"
0;"
0<"
0="
1>"
0?"
1@"
0A"
0B"
0C"
1D"
0E"
1F"
0G"
0H"
1I"
0J"
1K"
1L"
0M"
0N"
0O"
0P"
0Q"
0R"
0S"
0T"
0U"
0V"
0W"
0X"
0Y"
0Z"
0["
0\"
0]"
0q"
0p"
0o"
0n"
0m"
0l"
0k"
0j"
0i"
0h"
0g"
0f"
0e"
0d"
0c"
0b"
0a"
0`"
0_"
0^"
0s"
zr"
0x"
0w"
0v"
0u"
0t"
0{"
0z"
0y"
0~"
0}"
0|"
0*#
0)#
0(#
0'#
0&#
0%#
0$#
0##
0"#
0!#
0-#
0,#
z+#
07#
06#
05#
04#
03#
02#
01#
00#
0/#
0.#
0A#
0@#
0?#
0>#
0=#
0<#
0;#
0:#
09#
08#
0D#
0C#
zB#
0G#
0F#
zE#
$end
#500
1!
1O!
0-
#1000
0!
0O!
1-
#1500
1!
1O!
0-
#2000
0!
0O!
1-
#2500
1!
1O!
0-
#3000
0!
0O!
1-
#3500
1!
1O!
0-
#4000
0!
0O!
1-
#4500
1!
1O!
0-
#5000
0!
0O!
1-
#5500
1!
1O!
0-
#6000
0!
0O!
1-
#6500
1!
1O!
0-
#7000
0!
0O!
1-
#7500
1!
1O!
0-
#8000
0!
0O!
1-
#8500
1!
1O!
0-
#9000
0!
0O!
1-
#9500
1!
1O!
0-
#10000
0!
0O!
1-
#10500
1!
1O!
0-
#11000
0!
0O!
1-
#11500
1!
1O!
0-
#12000
0!
0O!
1-
#12500
1!
1O!
0-
#13000
0!
0O!
1-
#13500
1!
1O!
0-
#14000
0!
0O!
1-
#14500
1!
1O!
0-
#15000
0!
0O!
1-
#15500
1!
1O!
0-
#16000
0!
0O!
1-
#16500
1!
1O!
0-
#17000
0!
0O!
1-
#17500
1!
1O!
0-
#18000
0!
0O!
1-
#18500
1!
1O!
0-
#19000
0!
0O!
1-
#19500
1!
1O!
0-
#20000
0&
0!
0Q!
0O!
1-
#20500
1!
1O!
0-
#21000
0!
0O!
1-
#21500
1!
1O!
0-
#22000
0!
0O!
1-
#22500
1!
1O!
0-
#23000
0!
0O!
1-
#23500
1!
1O!
0-
#24000
0!
0O!
1-
#24500
1!
1O!
0-
#25000
0!
0O!
1-
#25500
1!
1O!
0-
#26000
0!
0O!
1-
#26500
1!
1O!
0-
#27000
0!
0O!
1-
#27500
1!
1O!
0-
#28000
0!
0O!
1-
#28500
1!
1O!
0-
#29000
0!
0O!
1-
#29500
1!
1O!
0-
#30000
0!
0O!
1-
#30500
1!
1O!
0-
#31000
0!
0O!
1-
#31500
1!
1O!
0-
#32000
0!
0O!
1-
#32500
1!
1O!
0-
#33000
0!
0O!
1-
#33500
1!
1O!
0-
#34000
0!
0O!
1-
#34500
1!
1O!
0-
#35000
0!
0O!
1-
#35500
1!
1O!
0-
#36000
0!
0O!
1-
#36500
1!
1O!
0-
#37000
0!
0O!
1-
#37500
1!
1O!
0-
#38000
0!
0O!
1-
#38500
1!
1O!
0-
#39000
0!
0O!
1-
#39500
1!
1O!
0-
#40000
0!
0O!
1-
#40500
1!
1O!
0-
#41000
0!
0O!
1-
#41500
1!
1O!
0-
#42000
0!
0O!
1-
#42500
1!
1O!
0-
#43000
0!
0O!
1-
#43500
1!
1O!
0-
#44000
0!
0O!
1-
#44500
1!
1O!
0-
#45000
0!
0O!
1-
#45500
1!
1O!
0-
#46000
0!
0O!
1-
#46500
1!
1O!
0-
#47000
0!
0O!
1-
#47500
1!
1O!
0-
#48000
0!
0O!
1-
#48500
1!
1O!
0-
#49000
0!
0O!
1-
#49500
1!
1O!
0-
#50000
0!
0O!
1-
#50500
1!
1O!
0-
#51000
0!
0O!
1-
#51500
1!
1O!
0-
#52000
0!
0O!
1-
#52500
1!
1O!
0-
#53000
0!
0O!
1-
#53500
1!
1O!
0-
#54000
0!
0O!
1-
#54500
1!
1O!
0-
#55000
0!
0O!
1-
#55500
1!
1O!
0-
#56000
0!
0O!
1-
#56500
1!
1O!
0-
#57000
0!
0O!
1-
#57500
1!
1O!
0-
#58000
0!
0O!
1-
#58500
1!
1O!
0-
#59000
0!
0O!
1-
#59500
1!
1O!
0-
#60000
0!
0O!
1-
#60500
1!
1O!
0-
#61000
0!
0O!
1-
#61500
1!
1O!
0-
#62000
0!
0O!
1-
#62500
1!
1O!
0-
#63000
0!
0O!
1-
#63500
1!
1O!
0-
#64000
0!
0O!
1-
#64500
1!
1O!
0-
#65000
0!
0O!
1-
#65500
1!
1O!
0-
#66000
0!
0O!
1-
#66500
1!
1O!
0-
#67000
0!
0O!
1-
#67500
1!
1O!
0-
#68000
0!
0O!
1-
#68500
1!
1O!
0-
#69000
0!
0O!
1-
#69500
1!
1O!
0-
#70000
0!
0O!
1-
#70500
1!
1O!
0-
#71000
0!
0O!
1-
#71500
1!
1O!
0-
#72000
0!
0O!
1-
#72500
1!
1O!
0-
#73000
0!
0O!
1-
#73500
1!
1O!
0-
#74000
0!
0O!
1-
#74500
1!
1O!
0-
#75000
0!
0O!
1-
#75500
1!
1O!
0-
#76000
0!
0O!
1-
#76500
1!
1O!
0-
#77000
0!
0O!
1-
#77500
1!
1O!
0-
#78000
0!
0O!
1-
#78500
1!
1O!
0-
#79000
0!
0O!
1-
#79500
1!
1O!
0-
#80000
1&
0!
1Q!
0O!
1-
#80500
1!
1O!
0-
#81000
0!
0O!
1-
#81500
1!
1O!
0-
#82000
0!
0O!
1-
#82500
1!
1O!
0-
#83000
0!
0O!
1-
#83500
1!
1O!
0-
#84000
0!
0O!
1-
#84500
1!
1O!
0-
#85000
0!
0O!
1-
#85500
1!
1O!
0-
#86000
0!
0O!
1-
#86500
1!
1O!
0-
#87000
0!
0O!
1-
#87500
1!
1O!
0-
#88000
0!
0O!
1-
#88500
1!
1O!
0-
#89000
0!
0O!
1-
#89500
1!
1O!
0-
#90000
0!
0O!
1-
#90500
1!
1O!
0-
#91000
0!
0O!
1-
#91500
1!
1O!
0-
#92000
0!
0O!
1-
#92500
1!
1O!
0-
#93000
0!
0O!
1-
#93500
1!
1O!
0-
#94000
0!
0O!
1-
#94500
1!
1O!
0-
#95000
0!
0O!
1-
#95500
1!
1O!
0-
#96000
0!
0O!
1-
#96500
1!
1O!
0-
#97000
0!
0O!
1-
#97500
1!
1O!
0-
#98000
0!
0O!
1-
#98500
1!
1O!
0-
#99000
0!
0O!
1-
#99500
1!
1O!
0-
#100000
0!
0O!
1-
#100500
1!
1O!
0-
#101000
0!
0O!
1-
#101500
1!
1O!
0-
#102000
0!
0O!
1-
#102500
1!
1O!
0-
#103000
0!
0O!
1-
#103500
1!
1O!
0-
#104000
0!
0O!
1-
#104500
1!
1O!
0-
#105000
0!
0O!
1-
#105500
1!
1O!
0-
#106000
0!
0O!
1-
#106500
1!
1O!
0-
#107000
0!
0O!
1-
#107500
1!
1O!
0-
#108000
0!
0O!
1-
#108500
1!
1O!
0-
#109000
0!
0O!
1-
#109500
1!
1O!
0-
#110000
0!
0O!
1-
#110500
1!
1O!
0-
#111000
0!
0O!
1-
#111500
1!
1O!
0-
#112000
0!
0O!
1-
#112500
1!
1O!
0-
#113000
0!
0O!
1-
#113500
1!
1O!
0-
#114000
0!
0O!
1-
#114500
1!
1O!
0-
#115000
0!
0O!
1-
#115500
1!
1O!
0-
#116000
0!
0O!
1-
#116500
1!
1O!
0-
#117000
0!
0O!
1-
#117500
1!
1O!
0-
#118000
0!
0O!
1-
#118500
1!
1O!
0-
#119000
0!
0O!
1-
#119500
1!
1O!
0-
#120000
0!
0O!
1-
#120500
1!
1O!
0-
#121000
0!
0O!
1-
#121500
1!
1O!
0-
#122000
0!
0O!
1-
#122500
1!
1O!
0-
#123000
0!
0O!
1-
#123500
1!
1O!
0-
#124000
0!
0O!
1-
#124500
1!
1O!
0-
#125000
0!
0O!
1-
#125500
1!
1O!
0-
#126000
0!
0O!
1-
#126500
1!
1O!
0-
#127000
0!
0O!
1-
#127500
1!
1O!
0-
#128000
0!
0O!
1-
#128500
1!
1O!
0-
#129000
0!
0O!
1-
#129500
1!
1O!
0-
#130000
0!
0O!
1-
#130500
1!
1O!
0-
#131000
0!
0O!
1-
#131500
1!
1O!
0-
#132000
0!
0O!
1-
#132500
1!
1O!
0-
#133000
0!
0O!
1-
#133500
1!
1O!
0-
#134000
0!
0O!
1-
#134500
1!
1O!
0-
#135000
0!
0O!
1-
#135500
1!
1O!
0-
#136000
0!
0O!
1-
#136500
1!
1O!
0-
#137000
0!
0O!
1-
#137500
1!
1O!
0-
#138000
0!
0O!
1-
#138500
1!
1O!
0-
#139000
0!
0O!
1-
#139500
1!
1O!
0-
#140000
0!
0O!
1-
#140500
1!
1O!
0-
#141000
0!
0O!
1-
#141500
1!
1O!
0-
#142000
0!
0O!
1-
#142500
1!
1O!
0-
#143000
0!
0O!
1-
#143500
1!
1O!
0-
#144000
0!
0O!
1-
#144500
1!
1O!
0-
#145000
0!
0O!
1-
#145500
1!
1O!
0-
#146000
0!
0O!
1-
#146500
1!
1O!
0-
#147000
0!
0O!
1-
#147500
1!
1O!
0-
#148000
0!
0O!
1-
#148500
1!
1O!
0-
#149000
0!
0O!
1-
#149500
1!
1O!
0-
#150000
0$
0!
0N!
0O!
1-
1K!
#150500
1!
1O!
0-
1B!
1D!
1E!
#151000
0!
0O!
1-
#151500
1!
1O!
0-
1C!
1-#
0D!
1H!
1?!
0E!
#152000
0!
0O!
1-
#152500
1!
1O!
0-
0-#
1,#
0?!
1-!
1>!
1E!
#153000
0!
0O!
1-
#153500
1!
1O!
0-
1-#
1*!
1~"
1V!
1P!
#154000
0!
0O!
1-
#154500
1!
1O!
0-
1{"
1R!
1W!
1N"
07"
04"
1q!
1j!
1"!
0}
0|
0z
0y
1r!
1#!
00"
0~"
0V!
0P!
#155000
0!
0O!
1-
#155500
1!
1O!
0-
1O"
1s!
1k!
0R!
1T"
0F"
1&!
0*
#156000
0!
0O!
1-
#156500
1!
1O!
0-
#157000
0!
0O!
1-
#157500
1!
1O!
0-
#158000
0!
0O!
1-
#158500
1!
1O!
0-
#159000
0!
0O!
1-
#159500
1!
1O!
0-
#160000
0!
0O!
1-
#160500
1!
1O!
0-
#161000
0!
0O!
1-
#161500
1!
1O!
0-
#162000
0!
0O!
1-
#162500
1!
1O!
0-
#163000
0!
0O!
1-
#163500
1!
1O!
0-
#164000
0!
0O!
1-
#164500
1!
1O!
0-
#165000
0!
0O!
1-
#165500
1!
1O!
0-
#166000
0!
0O!
1-
#166500
1!
1O!
0-
#167000
0!
0O!
1-
#167500
1!
1O!
0-
#168000
0!
0O!
1-
#168500
1!
1O!
0-
#169000
0!
0O!
1-
#169500
1!
1O!
0-
#170000
0!
0O!
1-
#170500
1!
1O!
0-
#171000
0!
0O!
1-
#171500
1!
1O!
0-
#172000
0!
0O!
1-
#172500
1!
1O!
0-
#173000
0!
0O!
1-
#173500
1!
1O!
0-
#174000
0!
0O!
1-
#174500
1!
1O!
0-
#175000
0!
0O!
1-
#175500
1!
1O!
0-
#176000
0!
0O!
1-
#176500
1!
1O!
0-
#177000
0!
0O!
1-
#177500
1!
1O!
0-
#178000
0!
0O!
1-
#178500
1!
1O!
0-
#179000
0!
0O!
1-
#179500
1!
1O!
0-
#180000
0!
0O!
1-
#180500
1!
1O!
0-
#181000
0!
0O!
1-
#181500
1!
1O!
0-
#182000
0!
0O!
1-
#182500
1!
1O!
0-
#183000
0!
0O!
1-
#183500
1!
1O!
0-
#184000
0!
0O!
1-
#184500
1!
1O!
0-
#185000
0!
0O!
1-
#185500
1!
1O!
0-
#186000
0!
0O!
1-
#186500
1!
1O!
0-
#187000
0!
0O!
1-
#187500
1!
1O!
0-
#188000
0!
0O!
1-
#188500
1!
1O!
0-
#189000
0!
0O!
1-
#189500
1!
1O!
0-
#190000
0!
0O!
1-
#190500
1!
1O!
0-
#191000
0!
0O!
1-
#191500
1!
1O!
0-
#192000
0!
0O!
1-
#192500
1!
1O!
0-
#193000
0!
0O!
1-
#193500
1!
1O!
0-
#194000
0!
0O!
1-
#194500
1!
1O!
0-
#195000
0!
0O!
1-
#195500
1!
1O!
0-
#196000
0!
0O!
1-
#196500
1!
1O!
0-
#197000
0!
0O!
1-
#197500
1!
1O!
0-
#198000
0!
0O!
1-
#198500
1!
1O!
0-
#199000
0!
0O!
1-
#199500
1!
1O!
0-
