Verilog/washing_machine/key_scan_b/simulation/qsim/key_scan.msim.vcd
$comment
	File created using the following command:
		vcd file key_scan.msim.vcd -direction
$end
$date
	Sun May 06 21:14:39 2018
$end
$version
	ModelSim Version 10.1d
$end
$timescale
	1ps
$end
$scope module key_scan_vlg_vec_tst $end
$var reg 1 ! CLK $end
$var reg 1 " RST_N $end
$var reg 1 # key_p $end
$var reg 1 $ key_s $end
$var reg 1 % key_w $end
$var wire 1 & key_value [2] $end
$var wire 1 ' key_value [1] $end
$var wire 1 ( key_value [0] $end
$var wire 1 ) sampler $end
$scope module i1 $end
$var wire 1 * gnd $end
$var wire 1 + vcc $end
$var wire 1 , unknown $end
$var tri1 1 - devclrn $end
$var tri1 1 . devpor $end
$var tri1 1 / devoe $end
$var wire 1 0 Mux5~2_combout $end
$var wire 1 1 Mux5~3_combout $end
$var wire 1 2 Mux2~1_combout $end
$var wire 1 3 Mux5~7_combout $end
$var wire 1 4 CLK~combout $end
$var wire 1 5 key_w~combout $end
$var wire 1 6 key_p~combout $end
$var wire 1 7 Mux2~2_combout $end
$var wire 1 8 key_s~combout $end
$var wire 1 9 Mux2~0_combout $end
$var wire 1 : step_cnt[2]~3_combout $end
$var wire 1 ; RST_N~combout $end
$var wire 1 < Mux2~3_combout $end
$var wire 1 = step_cnt[1]~0_combout $end
$var wire 1 > step_cnt[1]~1_combout $end
$var wire 1 ? step_cnt[1]~2_combout $end
$var wire 1 @ Mux5~4_combout $end
$var wire 1 A Mux5~5_combout $end
$var wire 1 B key_value[0]~reg0_regout $end
$var wire 1 C key_value~1_combout $end
$var wire 1 D Mux5~6_combout $end
$var wire 1 E key_value[1]~0_combout $end
$var wire 1 F Mux4~0_combout $end
$var wire 1 G key_value[1]~reg0_regout $end
$var wire 1 H Mux3~0_combout $end
$var wire 1 I Mux3~1_combout $end
$var wire 1 J key_value[2]~reg0_regout $end
$var wire 1 K step_cnt [2] $end
$var wire 1 L step_cnt [1] $end
$var wire 1 M step_cnt [0] $end
$upscope $end
$upscope $end
$enddefinitions $end
#0
$dumpvars
0!
1"
1#
1$
1%
0(
0'
0&
x)
0*
1+
x,
1-
1.
1/
10
01
02
03
04
15
16
07
18
09
0:
1;
0<
1=
0>
0?
0@
0A
0B
0C
0D
0E
0F
0G
0H
0I
0J
0M
0L
0K
$end
#5000
1!
14
0)
#10000
0!
04
1)
#15000
1!
14
0)
#20000
0!
04
1)
#25000
1!
14
0)
#30000
0"
0!
0;
04
1)
#35000
1!
14
0)
#40000
0!
04
1)
#45000
1!
14
0)
#50000
0!
04
1)
#55000
1!
14
0)
#60000
0!
04
1)
#65000
1!
14
0)
#70000
1"
0!
1;
04
1)
#75000
1!
14
0)
#80000
0!
04
1)
#85000
1!
14
0)
#90000
0!
04
1)
#95000
1!
14
0)
#100000
0!
04
1)
#105000
1!
14
0)
#110000
0$
0!
08
04
1)
19
1<
13
1A
#115000
1!
14
0)
1B
1M
1D
1>
0=
09
11
1(
0<
17
1<
#120000
0!
04
1)
#125000
1!
14
0)
#130000
0!
04
1)
#135000
1!
14
0)
#140000
0!
04
1)
#145000
1!
14
0)
#150000
1$
0!
18
04
1)
#155000
1!
14
0)
#160000
0!
04
1)
#165000
1!
14
0)
#170000
0!
04
1)
#175000
1!
14
0)
#180000
0!
04
1)
#185000
1!
14
0)
#190000
0!
04
1)
#195000
1!
14
0)
#200000
0!
04
1)
#205000
1!
14
0)
#210000
0%
0!
05
04
1)
1F
1?
07
00
0<
03
0A
#215000
1!
14
0)
1G
0B
1L
0M
1E
1C
1=
19
17
01
1'
0(
1<
13
07
1A
#220000
0!
04
1)
#225000
1!
14
0)
1B
1M
10
1H
09
11
1(
0<
17
1<
#230000
0!
04
1)
#235000
1!
14
0)
#240000
0!
04
1)
#245000
1!
14
0)
#250000
1%
0!
15
04
1)
#255000
1!
14
0)
#260000
0!
04
1)
#265000
1!
14
0)
#270000
0!
04
1)
#275000
1!
14
0)
#280000
0!
04
1)
#285000
1!
14
0)
#290000
0!
04
1)
#295000
1!
14
0)
#300000
0!
04
1)
#305000
1!
14
0)
#310000
0!
04
1)
#315000
1!
14
0)
#320000
0!
04
1)
#325000
1!
14
0)
#330000
0!
04
1)
#335000
1!
14
0)
#340000
0!
04
1)
#345000
1!
14
0)
#350000
0!
04
1)
#355000
1!
14
0)
#360000
0%
0!
05
04
1)
#365000
1!
14
0)
#370000
0!
04
1)
#375000
1!
14
0)
#380000
0!
04
1)
#385000
1!
14
0)
#390000
1%
0!
15
04
1)
#395000
1!
14
0)
#400000
0!
04
1)
#405000
1!
14
0)
#410000
0!
04
1)
#415000
1!
14
0)
#420000
0!
04
1)
#425000
1!
14
0)
#430000
0!
04
1)
#435000
1!
14
0)
#440000
0!
04
1)
#445000
1!
14
0)
#450000
0!
04
1)
#455000
1!
14
0)
#460000
0!
04
1)
#465000
1!
14
0)
#470000
0#
0!
06
04
1)
1I
0C
0>
0=
1:
07
00
0F
0?
0<
03
0A
#475000
1!
14
0)
1J
0G
0B
0L
0M
1K
0E
10
0D
1@
0:
17
12
01
1?
1&
0'
0(
1A
1<
07
#480000
0!
04
1)
#485000
1!
14
0)
1B
1L
1M
0K
00
1D
0@
1:
02
13
11
0?
1(
03
0<
0A
#490000
0!
04
1)
#495000
1!
14
0)
0B
0L
0M
1K
10
0D
1@
0:
17
12
01
1?
0(
1A
1<
07
#500000
0!
04
1)
#505000
1!
14
0)
1B
1L
1M
0K
00
1D
0@
1:
02
13
11
0?
1(
03
0<
0A
#510000
0!
04
1)
#515000
1!
14
0)
0B
0L
0M
1K
10
0D
1@
0:
17
12
01
1?
0(
1A
1<
07
#520000
0!
04
1)
#525000
1!
14
0)
1B
1L
1M
0K
00
1D
0@
1:
02
13
11
0?
1(
03
0<
0A
#530000
1#
0!
16
04
1)
1>
1=
0:
17
10
1?
1<
13
1A
#535000
1!
14
0)
#540000
0!
04
1)
#545000
1!
14
0)
#550000
0!
04
1)
#555000
1!
14
0)
#560000
0!
04
1)
#565000
1!
14
0)
#570000
0!
04
1)
#575000
1!
14
0)
#580000
0!
04
1)
#585000
1!
14
0)
#590000
0!
04
1)
#595000
1!
14
0)
#600000
0!
04
1)
#605000
1!
14
0)
#610000
0!
04
1)
#615000
1!
14
0)
#620000
0!
04
1)
#625000
1!
14
0)
#630000
0!
04
1)
#635000
1!
14
0)
#640000
0!
04
1)
#645000
1!
14
0)
#650000
0#
0!
06
04
1)
0>
0=
1:
07
00
0?
0<
03
0A
#655000
1!
14
0)
0B
0L
0M
1K
10
0D
1@
0:
17
12
01
1?
0(
1A
1<
07
#660000
0!
04
1)
#665000
1!
14
0)
1B
1L
1M
0K
00
1D
0@
1:
02
13
11
0?
1(
03
0<
0A
#670000
0!
04
1)
#675000
1!
14
0)
0B
0L
0M
1K
10
0D
1@
0:
17
12
01
1?
0(
1A
1<
07
#680000
1#
0!
16
04
1)
0@
1=
1:
02
0A
0?
0<
#685000
1!
14
0)
#690000
0!
04
1)
#695000
1!
14
0)
#700000
0!
04
1)
#705000
1!
14
0)
#710000
0!
04
1)
#715000
1!
14
0)
#720000
0!
04
1)
#725000
1!
14
0)
#730000
0!
04
1)
#735000
1!
14
0)
#740000
0!
04
1)
#745000
1!
14
0)
#750000
0!
04
1)
#755000
1!
14
0)
#760000
0!
04
1)
#765000
1!
14
0)
#770000
0!
04
1)
#775000
1!
14
0)
#780000
0!
04
1)
#785000
1!
14
0)
#790000
0$
0!
08
04
1)
19
#795000
1!
14
0)
#800000
0!
04
1)
#805000
1!
14
0)
#810000
0!
04
1)
#815000
1!
14
0)
#820000
0!
04
1)
#825000
1!
14
0)
#830000
1$
0!
18
04
1)
09
#835000
1!
14
0)
#840000
0!
04
1)
#845000
1!
14
0)
#850000
0!
04
1)
#855000
1!
14
0)
#860000
0!
04
1)
#865000
1!
14
0)
#870000
0!
04
1)
#875000
1!
14
0)
#880000
0!
04
1)
#885000
1!
14
0)
#890000
0!
04
1)
#895000
1!
14
0)
#900000
0!
04
1)
#905000
1!
14
0)
#910000
0!
04
1)
#915000
1!
14
0)
#920000
0!
04
1)
#925000
1!
14
0)
#930000
0!
04
1)
#935000
1!
14
0)
#940000
0!
04
1)
#945000
1!
14
0)
#950000
0!
04
1)
#955000
1!
14
0)
#960000
0!
04
1)
#965000
1!
14
0)
#970000
0!
04
1)
#975000
1!
14
0)
#980000
0!
04
1)
#985000
1!
14
0)
#990000
0!
04
1)
#995000
1!
14
0)
