Verilog/SR04/simulation/qsim/SR04.msim.vcd
$comment
	File created using the following command:
		vcd file SR04.msim.vcd -direction
$end
$date
	Sat Mar 03 15:14:44 2018
$end
$version
	ModelSim Version 10.1d
$end
$timescale
	1ps
$end
$scope module SR04_vlg_vec_tst $end
$var reg 1 ! CLK $end
$var reg 1 " ECHO $end
$var reg 1 # RST_N $end
$var reg 1 $ START $end
$var wire 1 % TRIG $end
$var wire 1 & distance [15] $end
$var wire 1 ' distance [14] $end
$var wire 1 ( distance [13] $end
$var wire 1 ) distance [12] $end
$var wire 1 * distance [11] $end
$var wire 1 + distance [10] $end
$var wire 1 , distance [9] $end
$var wire 1 - distance [8] $end
$var wire 1 . distance [7] $end
$var wire 1 / distance [6] $end
$var wire 1 0 distance [5] $end
$var wire 1 1 distance [4] $end
$var wire 1 2 distance [3] $end
$var wire 1 3 distance [2] $end
$var wire 1 4 distance [1] $end
$var wire 1 5 distance [0] $end
$var wire 1 6 sampler $end
$scope module i1 $end
$var wire 1 7 gnd $end
$var wire 1 8 vcc $end
$var wire 1 9 unknown $end
$var tri1 1 : devclrn $end
$var tri1 1 ; devpor $end
$var tri1 1 < devoe $end
$var wire 1 = Add0~12_combout $end
$var wire 1 > Add0~20_combout $end
$var wire 1 ? STATE.STATE_WAIT~0_combout $end
$var wire 1 @ distance[15]~1_combout $end
$var wire 1 A ECHO_e~combout $end
$var wire 1 B CLK~combout $end
$var wire 1 C CLK~clkctrl_outclk $end
$var wire 1 D TRIG~reg0feeder_combout $end
$var wire 1 E RST_N~combout $end
$var wire 1 F RST_N~clkctrl_outclk $end
$var wire 1 G TRIG~reg0_regout $end
$var wire 1 H ECHO~combout $end
$var wire 1 I Add0~1 $end
$var wire 1 J Add0~2_combout $end
$var wire 1 K Add0~10_combout $end
$var wire 1 L Add0~0_combout $end
$var wire 1 M Add0~6_combout $end
$var wire 1 N LessThan0~0_combout $end
$var wire 1 O LessThan0~1_combout $end
$var wire 1 P Add0~17 $end
$var wire 1 Q Add0~18_combout $end
$var wire 1 R Add0~19 $end
$var wire 1 S Add0~21 $end
$var wire 1 T Add0~22_combout $end
$var wire 1 U Add0~23 $end
$var wire 1 V Add0~25 $end
$var wire 1 W Add0~26_combout $end
$var wire 1 X Add0~27 $end
$var wire 1 Y Add0~28_combout $end
$var wire 1 Z Add0~29 $end
$var wire 1 [ Add0~30_combout $end
$var wire 1 \ Add0~24_combout $end
$var wire 1 ] LessThan0~3_combout $end
$var wire 1 ^ LessThan0~4_combout $end
$var wire 1 _ STATE.STATE_TRIG~0_combout $end
$var wire 1 ` Add0~3 $end
$var wire 1 a Add0~4_combout $end
$var wire 1 b Add0~5 $end
$var wire 1 c Add0~7 $end
$var wire 1 d Add0~8_combout $end
$var wire 1 e Add0~9 $end
$var wire 1 f Add0~11 $end
$var wire 1 g Add0~13 $end
$var wire 1 h Add0~14_combout $end
$var wire 1 i Add0~15 $end
$var wire 1 j Add0~16_combout $end
$var wire 1 k LessThan0~2_combout $end
$var wire 1 l STATE.STATE_WAIT~1_combout $end
$var wire 1 m distance[15]~0_combout $end
$var wire 1 n distance[15]~0clkctrl_outclk $end
$var wire 1 o ECHO_s~combout $end
$var wire 1 p DIS_CNT_n[0]~15_combout $end
$var wire 1 q distance[0]$latch~combout $end
$var wire 1 r DIS_CNT_n[1]~16_combout $end
$var wire 1 s always6~0_combout $end
$var wire 1 t distance[1]$latch~combout $end
$var wire 1 u DIS_CNT_n[1]~17 $end
$var wire 1 v DIS_CNT_n[2]~18_combout $end
$var wire 1 w distance[2]$latch~combout $end
$var wire 1 x DIS_CNT_n[2]~19 $end
$var wire 1 y DIS_CNT_n[3]~20_combout $end
$var wire 1 z distance[3]$latch~combout $end
$var wire 1 { DIS_CNT_n[3]~21 $end
$var wire 1 | DIS_CNT_n[4]~22_combout $end
$var wire 1 } distance[4]$latch~combout $end
$var wire 1 ~ DIS_CNT_n[4]~23 $end
$var wire 1 !! DIS_CNT_n[5]~24_combout $end
$var wire 1 "! distance[5]$latch~combout $end
$var wire 1 #! DIS_CNT_n[5]~25 $end
$var wire 1 $! DIS_CNT_n[6]~26_combout $end
$var wire 1 %! distance[6]$latch~combout $end
$var wire 1 &! DIS_CNT_n[6]~27 $end
$var wire 1 '! DIS_CNT_n[7]~28_combout $end
$var wire 1 (! distance[7]$latch~combout $end
$var wire 1 )! DIS_CNT_n[7]~29 $end
$var wire 1 *! DIS_CNT_n[8]~30_combout $end
$var wire 1 +! distance[8]$latch~combout $end
$var wire 1 ,! DIS_CNT_n[8]~31 $end
$var wire 1 -! DIS_CNT_n[9]~32_combout $end
$var wire 1 .! distance[9]$latch~combout $end
$var wire 1 /! DIS_CNT_n[9]~33 $end
$var wire 1 0! DIS_CNT_n[10]~34_combout $end
$var wire 1 1! distance[10]$latch~combout $end
$var wire 1 2! DIS_CNT_n[10]~35 $end
$var wire 1 3! DIS_CNT_n[11]~36_combout $end
$var wire 1 4! distance[11]$latch~combout $end
$var wire 1 5! DIS_CNT_n[11]~37 $end
$var wire 1 6! DIS_CNT_n[12]~38_combout $end
$var wire 1 7! distance[12]$latch~combout $end
$var wire 1 8! DIS_CNT_n[12]~39 $end
$var wire 1 9! DIS_CNT_n[13]~40_combout $end
$var wire 1 :! distance[13]$latch~combout $end
$var wire 1 ;! DIS_CNT_n[13]~41 $end
$var wire 1 <! DIS_CNT_n[14]~42_combout $end
$var wire 1 =! distance[14]$latch~combout $end
$var wire 1 >! DIS_CNT_n[14]~43 $end
$var wire 1 ?! DIS_CNT_n[15]~44_combout $end
$var wire 1 @! distance[15]$latch~combout $end
$var wire 1 A! T10US [15] $end
$var wire 1 B! T10US [14] $end
$var wire 1 C! T10US [13] $end
$var wire 1 D! T10US [12] $end
$var wire 1 E! T10US [11] $end
$var wire 1 F! T10US [10] $end
$var wire 1 G! T10US [9] $end
$var wire 1 H! T10US [8] $end
$var wire 1 I! T10US [7] $end
$var wire 1 J! T10US [6] $end
$var wire 1 K! T10US [5] $end
$var wire 1 L! T10US [4] $end
$var wire 1 M! T10US [3] $end
$var wire 1 N! T10US [2] $end
$var wire 1 O! T10US [1] $end
$var wire 1 P! T10US [0] $end
$var wire 1 Q! DIS_CNT_n [15] $end
$var wire 1 R! DIS_CNT_n [14] $end
$var wire 1 S! DIS_CNT_n [13] $end
$var wire 1 T! DIS_CNT_n [12] $end
$var wire 1 U! DIS_CNT_n [11] $end
$var wire 1 V! DIS_CNT_n [10] $end
$var wire 1 W! DIS_CNT_n [9] $end
$var wire 1 X! DIS_CNT_n [8] $end
$var wire 1 Y! DIS_CNT_n [7] $end
$var wire 1 Z! DIS_CNT_n [6] $end
$var wire 1 [! DIS_CNT_n [5] $end
$var wire 1 \! DIS_CNT_n [4] $end
$var wire 1 ]! DIS_CNT_n [3] $end
$var wire 1 ^! DIS_CNT_n [2] $end
$var wire 1 _! DIS_CNT_n [1] $end
$var wire 1 `! DIS_CNT_n [0] $end
$upscope $end
$upscope $end
$enddefinitions $end
#0
$dumpvars
0!
0"
1#
1$
0%
x5
x4
x3
x2
x1
x0
x/
x.
x-
x,
x+
x*
x)
x(
x'
x&
x6
07
18
x9
1:
1;
1<
0=
0>
1?
0@
0A
0B
0C
1D
1E
1F
0G
0H
0I
0J
0K
1L
0M
0N
0O
0P
0Q
1R
0S
0T
1U
0V
0W
1X
0Y
0Z
0[
0\
0]
0^
1_
1`
0a
0b
1c
0d
0e
1f
0g
0h
1i
0j
0k
0l
0m
0n
0o
0p
xq
0r
0s
xt
0u
0v
xw
1x
0y
xz
0{
0|
x}
1~
0!!
x"!
0#!
0$!
x%!
1&!
0'!
x(!
0)!
0*!
x+!
1,!
0-!
x.!
0/!
00!
x1!
12!
03!
x4!
05!
06!
x7!
18!
09!
x:!
0;!
0<!
x=!
1>!
0?!
x@!
0P!
0O!
0N!
0M!
0L!
0K!
0J!
0I!
0H!
0G!
0F!
0E!
0D!
0C!
0B!
0A!
0`!
0_!
0^!
0]!
0\!
0[!
0Z!
0Y!
0X!
0W!
0V!
0U!
0T!
0S!
0R!
0Q!
$end
#1000
1!
1B
1C
06
1P!
1G
1I
0L
1%
1J
#2000
0!
0B
0C
16
#3000
1!
1B
1C
06
1O!
0P!
0`
0J
0I
1L
1a
1`
1J
0a
#4000
0!
0B
0C
16
#5000
1!
1B
1C
06
1P!
1I
0L
0`
0J
1a
#6000
0!
0B
0C
16
#7000
1!
1B
1C
06
1N!
0O!
0P!
1b
0a
1`
1J
0I
1L
1M
0b
1a
0J
0M
#8000
0!
0B
0C
16
#9000
1!
1B
1C
06
1P!
1N
1I
0L
1J
#10000
0!
0B
0C
16
#11000
1!
1B
1C
06
1O!
0P!
0`
0J
0I
1L
1b
0a
1`
1J
1M
0b
1a
0M
#12000
0!
0B
0C
16
#13000
1!
1B
1C
06
1P!
1I
0L
0`
0J
1b
0a
1M
#14000
0!
0B
0C
16
#15000
1!
1B
1C
06
0N!
0O!
1M!
0P!
0b
1a
1`
1J
0c
0M
0I
1L
1c
1M
0a
1d
0J
0d
#16000
0!
0B
0C
16
#17000
1!
1B
1C
06
1P!
1I
0L
1J
#18000
0!
0B
0C
16
#19000
1!
1B
1C
06
1O!
0P!
0`
0J
0I
1L
1a
1`
1J
0a
#20000
0!
0B
0C
16
#21000
1!
1B
1C
06
1P!
1I
0L
0`
0J
1a
#22000
0!
0B
0C
16
#23000
1!
1B
1C
06
1N!
0O!
0P!
1b
0a
1`
1J
0I
1L
0c
0M
0b
1a
0J
1d
1c
1M
0d
#24000
0!
0B
0C
16
#25000
1!
1B
1C
06
1P!
1I
0L
1J
#26000
0!
0B
0C
16
#27000
1!
1B
1C
06
1O!
0P!
0`
0J
0I
1L
1b
0a
1`
1J
0c
0M
0b
1a
1d
1c
1M
0d
#28000
0!
0B
0C
16
#29000
1!
1B
1C
06
1P!
1I
0L
0`
0J
1b
0a
0c
0M
1d
#30000
0!
0B
0C
16
#31000
1!
1B
1C
06
1L!
0N!
0O!
0M!
0P!
1e
0d
0b
1a
0N
1`
1J
1c
1M
0I
1L
1K
0M
0a
0e
1d
0J
0K
#32000
0!
0B
0C
16
#33000
1!
1B
1C
06
1P!
1I
0L
1J
#34000
0!
0B
0C
16
#35000
1!
1B
1C
06
1O!
0P!
0`
0J
0I
1L
1a
1`
1J
0a
#36000
0!
0B
0C
16
#37000
1!
1B
1C
06
1P!
1I
0L
0`
0J
1a
#38000
0!
0B
0C
16
#39000
1!
1B
1C
06
1N!
0O!
0P!
1b
0a
1`
1J
0I
1L
1M
0b
1a
0J
0M
#40000
0#
0!
0E
0B
0C
0F
16
0?
0_
0G
0%
#41000
1!
1B
1C
06
#42000
0!
0B
0C
16
#43000
1!
1B
1C
06
#44000
0!
0B
0C
16
#45000
1!
1B
1C
06
#46000
0!
0B
0C
16
#47000
1!
1B
1C
06
#48000
0!
0B
0C
16
#49000
1!
1B
1C
06
#50000
1#
0!
1E
0B
0C
1F
16
1?
1_
#51000
1!
1B
1C
06
1P!
1G
1N
1I
0L
1%
1J
#52000
0!
0B
0C
16
#53000
1!
1B
1C
06
1O!
0P!
0`
0J
0I
1L
1b
0a
1`
1J
1M
0b
1a
0M
#54000
0!
0B
0C
16
#55000
1!
1B
1C
06
1P!
1I
0L
0`
0J
1b
0a
1M
#56000
0!
0B
0C
16
#57000
1!
1B
1C
06
0N!
0O!
1M!
0P!
0b
1a
1`
1J
0c
0M
0I
1L
1c
1M
0a
1e
0d
0J
0e
1d
1K
0K
#58000
0!
0B
0C
16
#59000
1!
1B
1C
06
1P!
1I
0L
1J
#60000
0$
0!
0B
0C
16
#61000
1!
1B
1C
06
1O!
0P!
0`
0J
0I
1L
1a
1`
1J
0a
#62000
0!
0B
0C
16
#63000
1!
1B
1C
06
1P!
1I
0L
0`
0J
1a
#64000
0!
0B
0C
16
#65000
1!
1B
1C
06
1N!
0O!
0P!
1b
0a
1`
1J
0I
1L
0c
0M
0b
1a
0J
1e
0d
1c
1M
1K
0e
1d
0K
#66000
0!
0B
0C
16
#67000
1!
1B
1C
06
1P!
1I
0L
1J
#68000
0!
0B
0C
16
#69000
1!
1B
1C
06
1O!
0P!
0`
0J
0I
1L
1b
0a
1`
1J
0c
0M
0b
1a
1e
0d
1c
1M
1K
0e
1d
0K
#70000
1$
0!
0B
0C
16
#71000
1!
1B
1C
06
1P!
1I
0L
0`
0J
1b
0a
0c
0M
1e
0d
1K
#72000
0!
0B
0C
16
#73000
1!
1B
1C
06
0L!
0N!
0O!
0M!
0P!
1K!
0e
1d
0b
1a
0N
1`
1J
1c
1M
0I
1L
0f
0K
1f
1K
0M
0a
0d
0J
1=
0=
#74000
0!
0B
0C
16
#75000
1!
1B
1C
06
1P!
1I
0L
1J
#76000
0!
0B
0C
16
#77000
1!
1B
1C
06
1O!
0P!
0`
0J
0I
1L
1a
1`
1J
0a
#78000
0!
0B
0C
16
#79000
1!
1B
1C
06
1P!
1I
0L
0`
0J
1a
#80000
0!
0B
0C
16
#81000
1!
1B
1C
06
1N!
0O!
0P!
1b
0a
1`
1J
0I
1L
1M
0b
1a
0J
0M
#82000
0!
0B
0C
16
#83000
1!
1B
1C
06
1P!
1N
1I
0L
1J
#84000
0!
0B
0C
16
#85000
1!
1B
1C
06
1O!
0P!
0`
0J
0I
1L
1b
0a
1`
1J
1M
0b
1a
0M
#86000
0!
0B
0C
16
#87000
1!
1B
1C
06
1P!
1I
0L
0`
0J
1b
0a
1M
#88000
0!
0B
0C
16
#89000
1!
1B
1C
06
0N!
0O!
1M!
0P!
0b
1a
1`
1J
0c
0M
0I
1L
1c
1M
0a
1d
0J
0d
#90000
0!
0B
0C
16
#91000
1!
1B
1C
06
1P!
1I
0L
1J
#92000
0!
0B
0C
16
#93000
1!
1B
1C
06
1O!
0P!
0`
0J
0I
1L
1a
1`
1J
0a
#94000
0!
0B
0C
16
#95000
1!
1B
1C
06
1P!
1I
0L
0`
0J
1a
#96000
0!
0B
0C
16
#97000
1!
1B
1C
06
1N!
0O!
0P!
1b
0a
1`
1J
0I
1L
0c
0M
0b
1a
0J
1d
1c
1M
0d
#98000
0!
0B
0C
16
#99000
1!
1B
1C
06
1P!
1I
0L
1J
#100000
0!
0B
0C
16
#101000
1!
1B
1C
06
1O!
0P!
0`
0J
0I
1L
1b
0a
1`
1J
0c
0M
0b
1a
1d
1c
1M
0d
#102000
0!
0B
0C
16
#103000
1!
1B
1C
06
1P!
1I
0L
0`
0J
1b
0a
0c
0M
1d
#104000
0!
0B
0C
16
#105000
1!
1B
1C
06
1L!
0N!
0O!
0M!
0P!
1e
0d
0b
1a
0N
1`
1J
1c
1M
0I
1L
0f
0K
0M
0a
0e
1d
0J
1=
1f
1K
0=
#106000
0!
0B
0C
16
#107000
1!
1B
1C
06
1P!
1I
0L
1J
#108000
0!
0B
0C
16
#109000
1!
1B
1C
06
1O!
0P!
0`
0J
0I
1L
1a
1`
1J
0a
#110000
0!
0B
0C
16
#111000
1!
1B
1C
06
1P!
1I
0L
0`
0J
1a
#112000
0!
0B
0C
16
#113000
1!
1B
1C
06
1N!
0O!
0P!
1b
0a
1`
1J
0I
1L
1M
0b
1a
0J
0M
#114000
0!
0B
0C
16
#115000
1!
1B
1C
06
1P!
1N
1I
0L
1J
#116000
0!
0B
0C
16
#117000
1!
1B
1C
06
1O!
0P!
0`
0J
0I
1L
1b
0a
1`
1J
1M
0b
1a
0M
#118000
0!
0B
0C
16
#119000
1!
1B
1C
06
1P!
1I
0L
0`
0J
1b
0a
1M
#120000
0!
0B
0C
16
#121000
1!
1B
1C
06
0N!
0O!
1M!
0P!
0b
1a
1`
1J
0c
0M
0I
1L
1c
1M
0a
1e
0d
0J
0e
1d
0f
0K
1f
1K
1=
0=
#122000
0!
0B
0C
16
#123000
1!
1B
1C
06
1P!
1I
0L
1J
#124000
0!
0B
0C
16
#125000
1!
1B
1C
06
1O!
0P!
0`
0J
0I
1L
1a
1`
1J
0a
#126000
0!
0B
0C
16
#127000
1!
1B
1C
06
1P!
1I
0L
0`
0J
1a
#128000
0!
0B
0C
16
#129000
1!
1B
1C
06
1N!
0O!
0P!
1b
0a
1`
1J
0I
1L
0c
0M
0b
1a
0J
1e
0d
1c
1M
0f
0K
0e
1d
1=
1f
1K
0=
#130000
0!
0B
0C
16
#131000
1!
1B
1C
06
1P!
1I
0L
1J
#132000
0!
0B
0C
16
#133000
1!
1B
1C
06
1O!
0P!
0`
0J
0I
1L
1b
0a
1`
1J
0c
0M
0b
1a
1e
0d
1c
1M
0f
0K
0e
1d
1=
1f
1K
0=
#134000
0!
0B
0C
16
#135000
1!
1B
1C
06
1P!
1I
0L
0`
0J
1b
0a
0c
0M
1e
0d
0f
0K
1=
#136000
0!
0B
0C
16
#137000
1!
1B
1C
06
0L!
0N!
0O!
0M!
0P!
0K!
1J!
0e
1d
0b
1a
0N
1`
1J
1c
1M
0I
1L
1f
1K
1g
0=
0K
0M
0a
0d
0J
0g
1=
1h
0h
#138000
0!
0B
0C
16
#139000
1!
1B
1C
06
1P!
1I
0L
1J
#140000
0!
0B
0C
16
#141000
1!
1B
1C
06
1O!
0P!
0`
0J
0I
1L
1a
1`
1J
0a
#142000
0!
0B
0C
16
#143000
1!
1B
1C
06
1P!
1I
0L
0`
0J
1a
#144000
0!
0B
0C
16
#145000
1!
1B
1C
06
1N!
0O!
0P!
1b
0a
1`
1J
0I
1L
1M
0b
1a
0J
0M
#146000
0!
0B
0C
16
#147000
1!
1B
1C
06
1P!
1N
1I
0L
1J
#148000
0!
0B
0C
16
#149000
1!
1B
1C
06
1O!
0P!
0`
0J
0I
1L
1b
0a
1`
1J
1M
0b
1a
0M
#150000
0!
0B
0C
16
#151000
1!
1B
1C
06
1P!
1I
0L
0`
0J
1b
0a
1M
#152000
0!
0B
0C
16
#153000
1!
1B
1C
06
0N!
0O!
1M!
0P!
0b
1a
1`
1J
0c
0M
0I
1L
1c
1M
0a
1d
0J
0d
#154000
0!
0B
0C
16
#155000
1!
1B
1C
06
1P!
1I
0L
1J
#156000
0!
0B
0C
16
#157000
1!
1B
1C
06
1O!
0P!
0`
0J
0I
1L
1a
1`
1J
0a
#158000
0!
0B
0C
16
#159000
1!
1B
1C
06
1P!
1I
0L
0`
0J
1a
#160000
0!
0B
0C
16
#161000
1!
1B
1C
06
1N!
0O!
0P!
1b
0a
1`
1J
0I
1L
0c
0M
0b
1a
0J
1d
1c
1M
0d
#162000
0!
0B
0C
16
#163000
1!
1B
1C
06
1P!
1I
0L
1J
#164000
0!
0B
0C
16
#165000
1!
1B
1C
06
1O!
0P!
0`
0J
0I
1L
1b
0a
1`
1J
0c
0M
0b
1a
1d
1c
1M
0d
#166000
0!
0B
0C
16
#167000
1!
1B
1C
06
1P!
1I
0L
0`
0J
1b
0a
0c
0M
1d
#168000
0!
0B
0C
16
#169000
1!
1B
1C
06
1L!
0N!
0O!
0M!
0P!
1e
0d
0b
1a
0N
1`
1J
1c
1M
0I
1L
1K
0M
0a
0e
1d
0J
0K
#170000
0!
0B
0C
16
#171000
1!
1B
1C
06
1P!
1I
0L
1J
#172000
0!
0B
0C
16
#173000
1!
1B
1C
06
1O!
0P!
0`
0J
0I
1L
1a
1`
1J
0a
#174000
0!
0B
0C
16
#175000
1!
1B
1C
06
1P!
1I
0L
0`
0J
1a
#176000
0!
0B
0C
16
#177000
1!
1B
1C
06
1N!
0O!
0P!
1b
0a
1`
1J
0I
1L
1M
0b
1a
0J
0M
#178000
0!
0B
0C
16
#179000
1!
1B
1C
06
1P!
1N
1I
0L
1J
#180000
0!
0B
0C
16
#181000
1!
1B
1C
06
1O!
0P!
0`
0J
0I
1L
1b
0a
1`
1J
1M
0b
1a
0M
#182000
0!
0B
0C
16
#183000
1!
1B
1C
06
1P!
1I
0L
0`
0J
1b
0a
1M
#184000
0!
0B
0C
16
#185000
1!
1B
1C
06
0N!
0O!
1M!
0P!
0b
1a
1`
1J
0c
0M
0I
1L
1c
1M
0a
1e
0d
0J
0e
1d
1K
0K
#186000
0!
0B
0C
16
#187000
1!
1B
1C
06
1P!
1I
0L
1J
#188000
0!
0B
0C
16
#189000
1!
1B
1C
06
1O!
0P!
0`
0J
0I
1L
1a
1`
1J
0a
#190000
0!
0B
0C
16
#191000
1!
1B
1C
06
1P!
1I
0L
0`
0J
1a
#192000
0!
0B
0C
16
#193000
1!
1B
1C
06
1N!
0O!
0P!
1b
0a
1`
1J
0I
1L
0c
0M
0b
1a
0J
1e
0d
1c
1M
1K
0e
1d
0K
#194000
0!
0B
0C
16
#195000
1!
1B
1C
06
1P!
1I
0L
1J
#196000
0!
0B
0C
16
#197000
1!
1B
1C
06
1O!
0P!
0`
0J
0I
1L
1b
0a
1`
1J
0c
0M
0b
1a
1e
0d
1c
1M
1K
0e
1d
0K
#198000
0!
0B
0C
16
#199000
1!
1B
1C
06
1P!
1I
0L
0`
0J
1b
0a
0c
0M
1e
0d
1K
#200000
0!
0B
0C
16
#201000
1!
1B
1C
06
0L!
0N!
0O!
0M!
0P!
1K!
0e
1d
1O
0b
1a
0N
1`
1J
1c
1M
0I
1L
0f
0K
1f
1K
1l
0_
0M
0O
0a
0d
0J
1g
0=
0g
1=
0l
1_
1h
0h
#202000
0!
0B
0C
16
#203000
1!
1B
1C
06
1P!
1I
0L
1J
#204000
0!
0B
0C
16
#205000
1!
1B
1C
06
1O!
0P!
0`
0J
0I
1L
1a
1`
1J
0a
#206000
0!
0B
0C
16
#207000
1!
1B
1C
06
1P!
1I
0L
0`
0J
1a
#208000
0!
0B
0C
16
#209000
1!
1B
1C
06
1N!
0O!
0P!
1b
0a
1`
1J
0I
1L
1M
0b
1a
0J
0M
#210000
0!
0B
0C
16
#211000
1!
1B
1C
06
1P!
1N
1I
0L
1O
1J
1l
0_
#212000
0!
0B
0C
16
#213000
1!
1B
1C
06
#214000
0!
0B
0C
16
#215000
1!
1B
1C
06
#216000
0!
0B
0C
16
#217000
1!
1B
1C
06
#218000
0!
0B
0C
16
#219000
1!
1B
1C
06
#220000
0!
0B
0C
16
#221000
1!
1B
1C
06
#222000
0!
0B
0C
16
#223000
1!
1B
1C
06
#224000
0!
0B
0C
16
#225000
1!
1B
1C
06
#226000
0!
0B
0C
16
#227000
1!
1B
1C
06
#228000
0!
0B
0C
16
#229000
1!
1B
1C
06
#230000
0!
0B
0C
16
#231000
1!
1B
1C
06
#232000
0!
0B
0C
16
#233000
1!
1B
1C
06
#234000
0!
0B
0C
16
#235000
1!
1B
1C
06
#236000
0!
0B
0C
16
#237000
1!
1B
1C
06
#238000
0!
0B
0C
16
#239000
1!
1B
1C
06
#240000
0!
0B
0C
16
#241000
1!
1B
1C
06
#242000
0!
0B
0C
16
#243000
1!
1B
1C
06
#244000
0!
0B
0C
16
#245000
1!
1B
1C
06
#246000
0!
0B
0C
16
#247000
1!
1B
1C
06
#248000
0!
0B
0C
16
#249000
1!
1B
1C
06
#250000
0!
0B
0C
16
#251000
1!
1B
1C
06
#252000
0!
0B
0C
16
#253000
1!
1B
1C
06
#254000
0!
0B
0C
16
#255000
1!
1B
1C
06
#256000
0!
0B
0C
16
#257000
1!
1B
1C
06
#258000
0!
0B
0C
16
#259000
1!
1B
1C
06
#260000
0!
0B
0C
16
#261000
1!
1B
1C
06
#262000
0!
0B
0C
16
#263000
1!
1B
1C
06
#264000
0!
0B
0C
16
#265000
1!
1B
1C
06
#266000
0!
0B
0C
16
#267000
1!
1B
1C
06
#268000
0!
0B
0C
16
#269000
1!
1B
1C
06
#270000
0!
0B
0C
16
#271000
1!
1B
1C
06
#272000
0!
0B
0C
16
#273000
1!
1B
1C
06
#274000
0!
0B
0C
16
#275000
1!
1B
1C
06
#276000
0!
0B
0C
16
#277000
1!
1B
1C
06
#278000
0!
0B
0C
16
#279000
1!
1B
1C
06
#280000
0!
0B
0C
16
#281000
1!
1B
1C
06
#282000
0!
0B
0C
16
#283000
1!
1B
1C
06
#284000
0!
0B
0C
16
#285000
1!
1B
1C
06
#286000
0!
0B
0C
16
#287000
1!
1B
1C
06
#288000
0!
0B
0C
16
#289000
1!
1B
1C
06
#290000
0!
0B
0C
16
#291000
1!
1B
1C
06
#292000
0!
0B
0C
16
#293000
1!
1B
1C
06
#294000
0!
0B
0C
16
#295000
1!
1B
1C
06
#296000
0!
0B
0C
16
#297000
1!
1B
1C
06
#298000
0!
0B
0C
16
#299000
1!
1B
1C
06
#300000
0!
0B
0C
16
#301000
1!
1B
1C
06
#302000
0!
0B
0C
16
#303000
1!
1B
1C
06
#304000
0!
0B
0C
16
#305000
1!
1B
1C
06
#306000
0!
0B
0C
16
#307000
1!
1B
1C
06
#308000
0!
0B
0C
16
#309000
1!
1B
1C
06
#310000
0!
0B
0C
16
#311000
1!
1B
1C
06
#312000
0!
0B
0C
16
#313000
1!
1B
1C
06
#314000
0!
0B
0C
16
#315000
1!
1B
1C
06
#316000
0!
0B
0C
16
#317000
1!
1B
1C
06
#318000
0!
0B
0C
16
#319000
1!
1B
1C
06
#320000
0!
0B
0C
16
#321000
1!
1B
1C
06
#322000
0!
0B
0C
16
#323000
1!
1B
1C
06
#324000
0!
0B
0C
16
#325000
1!
1B
1C
06
#326000
0!
0B
0C
16
#327000
1!
1B
1C
06
#328000
0!
0B
0C
16
#329000
1!
1B
1C
06
#330000
0!
0B
0C
16
#331000
1!
1B
1C
06
#332000
0!
0B
0C
16
#333000
1!
1B
1C
06
#334000
0!
0B
0C
16
#335000
1!
1B
1C
06
#336000
0!
0B
0C
16
#337000
1!
1B
1C
06
#338000
0!
0B
0C
16
#339000
1!
1B
1C
06
#340000
0!
0B
0C
16
#341000
1!
1B
1C
06
#342000
0!
0B
0C
16
#343000
1!
1B
1C
06
#344000
0!
0B
0C
16
#345000
1!
1B
1C
06
#346000
0!
0B
0C
16
#347000
1!
1B
1C
06
#348000
0!
0B
0C
16
#349000
1!
1B
1C
06
#350000
0!
0B
0C
16
#351000
1!
1B
1C
06
#352000
0!
0B
0C
16
#353000
1!
1B
1C
06
#354000
0!
0B
0C
16
#355000
1!
1B
1C
06
#356000
0!
0B
0C
16
#357000
1!
1B
1C
06
#358000
0!
0B
0C
16
#359000
1!
1B
1C
06
#360000
0!
0B
0C
16
#361000
1!
1B
1C
06
#362000
0!
0B
0C
16
#363000
1!
1B
1C
06
#364000
0!
0B
0C
16
#365000
1!
1B
1C
06
#366000
0!
0B
0C
16
#367000
1!
1B
1C
06
#368000
0!
0B
0C
16
#369000
1!
1B
1C
06
#370000
0!
0B
0C
16
#371000
1!
1B
1C
06
#372000
0!
0B
0C
16
#373000
1!
1B
1C
06
#374000
0!
0B
0C
16
#375000
1!
1B
1C
06
#376000
0!
0B
0C
16
#377000
1!
1B
1C
06
#378000
0!
0B
0C
16
#379000
1!
1B
1C
06
#380000
0!
0B
0C
16
#381000
1!
1B
1C
06
#382000
0!
0B
0C
16
#383000
1!
1B
1C
06
#384000
0!
0B
0C
16
#385000
1!
1B
1C
06
#386000
0!
0B
0C
16
#387000
1!
1B
1C
06
#388000
0!
0B
0C
16
#389000
1!
1B
1C
06
#390000
0!
0B
0C
16
#391000
1!
1B
1C
06
#392000
0!
0B
0C
16
#393000
1!
1B
1C
06
#394000
0!
0B
0C
16
#395000
1!
1B
1C
06
#396000
0!
0B
0C
16
#397000
1!
1B
1C
06
#398000
0!
0B
0C
16
#399000
1!
1B
1C
06
#400000
0!
0B
0C
16
#401000
1!
1B
1C
06
#402000
0!
0B
0C
16
#403000
1!
1B
1C
06
#404000
0!
0B
0C
16
#405000
1!
1B
1C
06
#406000
0!
0B
0C
16
#407000
1!
1B
1C
06
#408000
0!
0B
0C
16
#409000
1!
1B
1C
06
#410000
0!
0B
0C
16
#411000
1!
1B
1C
06
#412000
0!
0B
0C
16
#413000
1!
1B
1C
06
#414000
0!
0B
0C
16
#415000
1!
1B
1C
06
#416000
0!
0B
0C
16
#417000
1!
1B
1C
06
#418000
0!
0B
0C
16
#419000
1!
1B
1C
06
#420000
0!
0B
0C
16
#421000
1!
1B
1C
06
#422000
0!
0B
0C
16
#423000
1!
1B
1C
06
#424000
0!
0B
0C
16
#425000
1!
1B
1C
06
#426000
0!
0B
0C
16
#427000
1!
1B
1C
06
#428000
0!
0B
0C
16
#429000
1!
1B
1C
06
#430000
0!
0B
0C
16
#431000
1!
1B
1C
06
#432000
0!
0B
0C
16
#433000
1!
1B
1C
06
#434000
0!
0B
0C
16
#435000
1!
1B
1C
06
#436000
0!
0B
0C
16
#437000
1!
1B
1C
06
#438000
0!
0B
0C
16
#439000
1!
1B
1C
06
#440000
0!
0B
0C
16
#441000
1!
1B
1C
06
#442000
0!
0B
0C
16
#443000
1!
1B
1C
06
#444000
0!
0B
0C
16
#445000
1!
1B
1C
06
#446000
0!
0B
0C
16
#447000
1!
1B
1C
06
#448000
0!
0B
0C
16
#449000
1!
1B
1C
06
#450000
0!
0B
0C
16
#451000
1!
1B
1C
06
#452000
0!
0B
0C
16
#453000
1!
1B
1C
06
#454000
0!
0B
0C
16
#455000
1!
1B
1C
06
#456000
0!
0B
0C
16
#457000
1!
1B
1C
06
#458000
0!
0B
0C
16
#459000
1!
1B
1C
06
#460000
0!
0B
0C
16
#461000
1!
1B
1C
06
#462000
0!
0B
0C
16
#463000
1!
1B
1C
06
#464000
0!
0B
0C
16
#465000
1!
1B
1C
06
#466000
0!
0B
0C
16
#467000
1!
1B
1C
06
#468000
0!
0B
0C
16
#469000
1!
1B
1C
06
#470000
0!
0B
0C
16
#471000
1!
1B
1C
06
#472000
0!
0B
0C
16
#473000
1!
1B
1C
06
#474000
0!
0B
0C
16
#475000
1!
1B
1C
06
#476000
0!
0B
0C
16
#477000
1!
1B
1C
06
#478000
0!
0B
0C
16
#479000
1!
1B
1C
06
